{
    "log_monitoring": [
        {
            "path": "/scratch/cfd/dupuy/NoiseDyn/FLAME_RUNS/Rodless/RUN_bpmod2/avbp_20181028_063539.o",
            "contents": {
                "err_log": [
                    "before wrap up\n ok",
                    0
                ],
                "creation_time": "2018-10-28T06:35:39",
                "vars": {
                    "physical_time": 0.3155474,
                    "final_iteration": 5355480,
                    "number_of_probes": 71,
                    "CPU_time_s": 15000000.0,
                    "initial_iteration": 5218830,
                    "AVBP_version": "7.2.0",
                    "MPI_processes": 360,
                    "elapsed_time": 41657.87,
                    "initial_time": 0.30743971,
                    "nodes": 3130226,
                    "mesh_cells": 17772066,
                    "dimension": 3,
                    "time_per_ite": 0.3048
                },
                "params": {
                    "reactive_flow": 1,
                    "CFL": "70000000",
                    "mixture_name": "CH4",
                    "smu2": "1",
                    "convection_scheme": "TTGC",
                    "partitioner": "parmetis",
                    "ncell_group": "40",
                    "solver_type": "ns",
                    "artificial_viscosity_model": "colin",
                    "LES_model": "sigma"
                }
            }
        },
        {
            "path": "/scratch/cfd/dupuy/NoiseDyn/FLAME_RUNS/Rodless/RUN_bpmod2/avbp_20181026_024756.o",
            "contents": {
                "err_log": [
                    "wall dist ok,\n before other preproc",
                    290
                ],
                "creation_time": "2018-10-26T02:47:56",
                "vars": {
                    "physical_time": 0.28338878,
                    "final_iteration": 4813360,
                    "number_of_probes": 71,
                    "CPU_time_s": 15000000.0,
                    "initial_iteration": 4677197,
                    "AVBP_version": "7.2.0",
                    "MPI_processes": 360,
                    "elapsed_time": 41659.7,
                    "initial_time": 0.27531013,
                    "nodes": 3130226,
                    "mesh_cells": 17772066,
                    "dimension": 3,
                    "time_per_ite": 0.3059
                },
                "params": {
                    "reactive_flow": 1,
                    "CFL": "70000000",
                    "mixture_name": "CH4",
                    "smu2": "1",
                    "convection_scheme": "TTGC",
                    "partitioner": "parmetis",
                    "ncell_group": "40",
                    "solver_type": "ns",
                    "artificial_viscosity_model": "colin",
                    "LES_model": "sigma"
                }
            }
        },
        {
            "path": "/scratch/cfd/dupuy/NoiseDyn/FLAME_RUNS/Rodless/RUN_bpmod2/avbp_20181026_142218.o",
            "contents": {
                "err_log": [
                    "before wrap up\n ok",
                    0
                ],
                "creation_time": "2018-10-26T14:22:18",
                "vars": {
                    "physical_time": 0.29144315,
                    "final_iteration": 4949123,
                    "number_of_probes": 71,
                    "CPU_time_s": 15000000.0,
                    "initial_iteration": 4813360,
                    "AVBP_version": "7.2.0",
                    "MPI_processes": 360,
                    "elapsed_time": 41659.44,
                    "initial_time": 0.28338878,
                    "nodes": 3130226,
                    "mesh_cells": 17772066,
                    "dimension": 3,
                    "time_per_ite": 0.3068
                },
                "params": {
                    "reactive_flow": 1,
                    "CFL": "70000000",
                    "mixture_name": "CH4",
                    "smu2": "1",
                    "convection_scheme": "TTGC",
                    "partitioner": "parmetis",
                    "ncell_group": "40",
                    "solver_type": "ns",
                    "artificial_viscosity_model": "colin",
                    "LES_model": "sigma"
                }
            }
        },
        {
            "path": "/scratch/cfd/dupuy/NoiseDyn/FLAME_RUNS/Rodless/RUN_bpmod2/avbp_20181027_082658.o",
            "contents": {
                "err_log": [
                    "before wrap up\n ok",
                    0
                ],
                "creation_time": "2018-10-27T08:26:58",
                "vars": {
                    "physical_time": 0.29951816,
                    "final_iteration": 5085282,
                    "number_of_probes": 71,
                    "CPU_time_s": 15000000.0,
                    "initial_iteration": 4949123,
                    "AVBP_version": "7.2.0",
                    "MPI_processes": 360,
                    "elapsed_time": 41658.84,
                    "initial_time": 0.29144315,
                    "nodes": 3130226,
                    "mesh_cells": 17772066,
                    "dimension": 3,
                    "time_per_ite": 0.3059
                },
                "params": {
                    "reactive_flow": 1,
                    "CFL": "70000000",
                    "mixture_name": "CH4",
                    "smu2": "1",
                    "convection_scheme": "TTGC",
                    "partitioner": "parmetis",
                    "ncell_group": "40",
                    "solver_type": "ns",
                    "artificial_viscosity_model": "colin",
                    "LES_model": "sigma"
                }
            }
        },
        {
            "path": "/scratch/cfd/dupuy/NoiseDyn/FLAME_RUNS/Rodless/RUN_bpmod2/avbp.o",
            "contents": {
                "err_log": [
                    "before wrap up\n ok",
                    0
                ],
                "creation_time": "2018-10-28T18:10:00",
                "vars": {
                    "physical_time": 0.32364487,
                    "final_iteration": 5491990,
                    "number_of_probes": 71,
                    "CPU_time_s": 15000000.0,
                    "initial_iteration": 5355480,
                    "AVBP_version": "7.2.0",
                    "MPI_processes": 360,
                    "elapsed_time": 41658.43,
                    "initial_time": 0.3155474,
                    "nodes": 3130226,
                    "mesh_cells": 17772066,
                    "dimension": 3,
                    "time_per_ite": 0.3051
                },
                "params": {
                    "reactive_flow": 1,
                    "CFL": "70000000",
                    "mixture_name": "CH4",
                    "smu2": "1",
                    "convection_scheme": "TTGC",
                    "partitioner": "parmetis",
                    "ncell_group": "40",
                    "solver_type": "ns",
                    "artificial_viscosity_model": "colin",
                    "LES_model": "sigma"
                }
            }
        },
        {
            "path": "/scratch/cfd/dupuy/NoiseDyn/FLAME_RUNS/Rodless/RUN_bpmod2/avbp_20181027_200120.o",
            "contents": {
                "err_log": [
                    "before wrap up\n ok",
                    0
                ],
                "creation_time": "2018-10-27T20:01:20",
                "vars": {
                    "physical_time": 0.30743971,
                    "final_iteration": 5218830,
                    "number_of_probes": 71,
                    "CPU_time_s": 15000000.0,
                    "initial_iteration": 5085282,
                    "AVBP_version": "7.2.0",
                    "MPI_processes": 360,
                    "elapsed_time": 41658.72,
                    "initial_time": 0.29951816,
                    "nodes": 3130226,
                    "mesh_cells": 17772066,
                    "dimension": 3,
                    "time_per_ite": 0.3119
                },
                "params": {
                    "reactive_flow": 1,
                    "CFL": "70000000",
                    "mixture_name": "CH4",
                    "smu2": "1",
                    "convection_scheme": "TTGC",
                    "partitioner": "parmetis",
                    "ncell_group": "40",
                    "solver_type": "ns",
                    "artificial_viscosity_model": "colin",
                    "LES_model": "sigma"
                }
            }
        },
        {
            "path": "/scratch/cfd/dupuy/NoiseDyn/FLAME_RUNS/Rodless/RUN_bpmod2/avbp_20181028_181000.o",
            "contents": {
                "err_log": [
                    "before wrap up\n ok",
                    0
                ],
                "creation_time": "2018-10-28T18:10:00",
                "vars": {
                    "physical_time": 0.32364487,
                    "final_iteration": 5491990,
                    "number_of_probes": 71,
                    "CPU_time_s": 15000000.0,
                    "initial_iteration": 5355480,
                    "AVBP_version": "7.2.0",
                    "MPI_processes": 360,
                    "elapsed_time": 41658.43,
                    "initial_time": 0.3155474,
                    "nodes": 3130226,
                    "mesh_cells": 17772066,
                    "dimension": 3,
                    "time_per_ite": 0.3051
                },
                "params": {
                    "reactive_flow": 1,
                    "CFL": "70000000",
                    "mixture_name": "CH4",
                    "smu2": "1",
                    "convection_scheme": "TTGC",
                    "partitioner": "parmetis",
                    "ncell_group": "40",
                    "solver_type": "ns",
                    "artificial_viscosity_model": "colin",
                    "LES_model": "sigma"
                }
            }
        }
    ]
}