{
    "log_monitoring": [
        {
            "path": "/scratch/coop/gullaud/WKDIR/1D_FLAME_MARCH/RUN_THICK/avbp_20200414_104746.o",
            "contents": {
                "err_log": [
                    "before run params",
                    110
                ],
                "creation_time": "2020-04-14T10:47:46",
                "vars": {
                    "physical_time": 1.2677514e-08,
                    "final_iteration": 4,
                    "CPU_time_s": 0.7988,
                    "initial_iteration": 0,
                    "AVBP_version": "7.5.0",
                    "MPI_processes": 1,
                    "elapsed_time": 0.8,
                    "initial_time": 0.0,
                    "nodes": 1602,
                    "mesh_cells": 800,
                    "dimension": 2,
                    "time_per_ite": 0.0411
                },
                "params": {
                    "reactive_flow": 1,
                    "CFL": "70000000",
                    "mixture_name": "C3H8",
                    "smu2": "0",
                    "convection_scheme": "LW",
                    "partitioner": "parmetis",
                    "ncell_group": "40",
                    "solver_type": "ns",
                    "artificial_viscosity_model": "colin",
                    "LES_model": "no"
                }
            }
        },
        {
            "path": "/scratch/coop/gullaud/WKDIR/1D_FLAME_MARCH/RUN_THICK/avbp.o",
            "contents": {
                "err_log": [
                    "before run params",
                    110
                ],
                "creation_time": "2020-04-14T12:03:44",
                "vars": {
                    "initial_iteration": 0,
                    "AVBP_version": "7.5.0",
                    "MPI_processes": 1,
                    "initial_time": 0.0,
                    "nodes": 1602,
                    "mesh_cells": 800,
                    "dimension": 2
                },
                "params": {
                    "reactive_flow": 1,
                    "CFL": "70000000",
                    "mixture_name": "C3H8",
                    "smu2": "0",
                    "convection_scheme": "LW",
                    "partitioner": "parmetis",
                    "ncell_group": "40",
                    "solver_type": "ns",
                    "artificial_viscosity_model": "colin",
                    "LES_model": "no"
                }
            }
        }
    ]
}