{
    "log_monitoring": [
        {
            "path": "/scratch/coop/gullaud/WKDIR/1D_FLAME_TUTO_BIS/RUN_F=5/RUN/avbp_20190910_112037.o",
            "contents": {
                "err_log": [
                    "before wrap up\n ok",
                    0
                ],
                "creation_time": "2019-09-10T11:20:37",
                "vars": {
                    "physical_time": 0.060000116,
                    "final_iteration": 373593,
                    "number_of_probes": 2,
                    "CPU_time_s": 1173.0,
                    "initial_iteration": 0,
                    "AVBP_version": "7.5.0",
                    "MPI_processes": 36,
                    "elapsed_time": 32.58,
                    "initial_time": 0.0,
                    "nodes": 202,
                    "mesh_cells": 100,
                    "dimension": 2,
                    "time_per_ite": 0.0001
                },
                "params": {
                    "reactive_flow": 1,
                    "CFL": "70000000",
                    "mixture_name": "CH4",
                    "smu2": "0",
                    "convection_scheme": "LW",
                    "partitioner": "parmetis",
                    "ncell_group": "40",
                    "solver_type": "ns",
                    "artificial_viscosity_model": "colin",
                    "LES_model": "no"
                }
            }
        },
        {
            "path": "/scratch/coop/gullaud/WKDIR/1D_FLAME_TUTO_BIS/RUN_F=5/RUN/avbp.o",
            "contents": {
                "err_log": [
                    "before wrap up\n ok",
                    0
                ],
                "creation_time": "2019-09-10T11:20:37",
                "vars": {
                    "physical_time": 0.060000116,
                    "final_iteration": 373593,
                    "number_of_probes": 2,
                    "CPU_time_s": 1173.0,
                    "initial_iteration": 0,
                    "AVBP_version": "7.5.0",
                    "MPI_processes": 36,
                    "elapsed_time": 32.58,
                    "initial_time": 0.0,
                    "nodes": 202,
                    "mesh_cells": 100,
                    "dimension": 2,
                    "time_per_ite": 0.0001
                },
                "params": {
                    "reactive_flow": 1,
                    "CFL": "70000000",
                    "mixture_name": "CH4",
                    "smu2": "0",
                    "convection_scheme": "LW",
                    "partitioner": "parmetis",
                    "ncell_group": "40",
                    "solver_type": "ns",
                    "artificial_viscosity_model": "colin",
                    "LES_model": "no"
                }
            }
        },
        {
            "path": "/scratch/coop/gullaud/WKDIR/1D_FLAME_TUTO_BIS/RUN_F=5/RUN/avbp_20190909_172855.o",
            "contents": {
                "err_log": [
                    "before wrap up\n ok",
                    0
                ],
                "creation_time": "2019-09-09T17:28:55",
                "vars": {
                    "physical_time": 0.060000078,
                    "final_iteration": 528007,
                    "number_of_probes": 2,
                    "CPU_time_s": 1307.0,
                    "initial_iteration": 0,
                    "AVBP_version": "7.5.0",
                    "MPI_processes": 36,
                    "elapsed_time": 36.29,
                    "initial_time": 0.0,
                    "nodes": 202,
                    "mesh_cells": 100,
                    "dimension": 2,
                    "time_per_ite": 0.0001
                },
                "params": {
                    "reactive_flow": 1,
                    "CFL": "70000000",
                    "mixture_name": "CH4",
                    "smu2": "0",
                    "convection_scheme": "LW",
                    "partitioner": "parmetis",
                    "ncell_group": "40",
                    "solver_type": "ns",
                    "artificial_viscosity_model": "colin",
                    "LES_model": "no"
                }
            }
        },
        {
            "path": "/scratch/coop/gullaud/WKDIR/1D_FLAME_TUTO_BIS/RUN_F=5/RUN/avbp_20190909_173651.o",
            "contents": {
                "err_log": [
                    "before wrap up\n ok",
                    0
                ],
                "creation_time": "2019-09-09T17:36:51",
                "vars": {
                    "physical_time": 0.060000013,
                    "final_iteration": 528003,
                    "number_of_probes": 2,
                    "CPU_time_s": 1428.0,
                    "initial_iteration": 0,
                    "AVBP_version": "7.5.0",
                    "MPI_processes": 36,
                    "elapsed_time": 39.65,
                    "initial_time": 0.0,
                    "nodes": 202,
                    "mesh_cells": 100,
                    "dimension": 2,
                    "time_per_ite": 0.0001
                },
                "params": {
                    "reactive_flow": 1,
                    "CFL": "70000000",
                    "mixture_name": "CH4",
                    "smu2": "0",
                    "convection_scheme": "LW",
                    "partitioner": "parmetis",
                    "ncell_group": "40",
                    "solver_type": "ns",
                    "artificial_viscosity_model": "colin",
                    "LES_model": "no"
                }
            }
        },
        {
            "path": "/scratch/coop/gullaud/WKDIR/1D_FLAME_TUTO_BIS/RUN_F=5/RUN/avbp_20190910_111651.o",
            "contents": {
                "err_log": [
                    "before wrap up\n ok",
                    0
                ],
                "creation_time": "2019-09-10T11:16:51",
                "vars": {
                    "physical_time": 0.060000116,
                    "final_iteration": 373593,
                    "number_of_probes": 2,
                    "CPU_time_s": 1224.0,
                    "initial_iteration": 0,
                    "AVBP_version": "7.5.0",
                    "MPI_processes": 36,
                    "elapsed_time": 34.0,
                    "initial_time": 0.0,
                    "nodes": 202,
                    "mesh_cells": 100,
                    "dimension": 2,
                    "time_per_ite": 0.0001
                },
                "params": {
                    "reactive_flow": 1,
                    "CFL": "70000000",
                    "mixture_name": "CH4",
                    "smu2": "0",
                    "convection_scheme": "LW",
                    "partitioner": "parmetis",
                    "ncell_group": "40",
                    "solver_type": "ns",
                    "artificial_viscosity_model": "colin",
                    "LES_model": "no"
                }
            }
        }
    ]
}