{
    "log_monitoring": [
        {
            "path": "/scratch/cfd/potier/TEMP_NUM/2_Poiseuille2D_AVBP/CASE_01_snc_LL_correction/RUN/avbp_20190425_141325.o",
            "contents": {
                "err_log": [
                    "before run params",
                    110
                ],
                "creation_time": "2019-07-11T15:05:15",
                "vars": {
                    "physical_time": 1.0567554e-06,
                    "final_iteration": 55,
                    "number_of_probes": 2,
                    "CPU_time_s": 19.23,
                    "initial_iteration": 0,
                    "AVBP_version": "7.3.0",
                    "MPI_processes": 36,
                    "elapsed_time": 0.53,
                    "initial_time": 0.0,
                    "nodes": 441,
                    "mesh_cells": 400,
                    "dimension": 2,
                    "time_per_ite": 0.0031
                },
                "params": {
                    "reactive_flow": 0,
                    "CFL": "70000000",
                    "mixture_name": "N2_qpf",
                    "smu2": "0",
                    "convection_scheme": "TTGC",
                    "partitioner": "parmetis",
                    "ncell_group": "40",
                    "solver_type": "euler",
                    "artificial_viscosity_model": "jameson",
                    "real_gas": 0,
                    "LES_model": "no"
                }
            }
        },
        {
            "path": "/scratch/cfd/potier/TEMP_NUM/2_Poiseuille2D_AVBP/CASE_01_snc_LL_correction/RUN/avbp_20190425_141248.o",
            "contents": {
                "err_log": [
                    "before run params",
                    110
                ],
                "creation_time": "2019-07-11T15:05:15",
                "vars": {
                    "physical_time": 3.5728523e-06,
                    "final_iteration": 187,
                    "number_of_probes": 2,
                    "CPU_time_s": 47.79,
                    "initial_iteration": 0,
                    "AVBP_version": "7.3.0",
                    "MPI_processes": 36,
                    "elapsed_time": 1.33,
                    "initial_time": 0.0,
                    "nodes": 441,
                    "mesh_cells": 400,
                    "dimension": 2,
                    "time_per_ite": 0.0033
                },
                "params": {
                    "reactive_flow": 0,
                    "CFL": "70000000",
                    "mixture_name": "N2_qpf",
                    "smu2": "0",
                    "convection_scheme": "TTGC",
                    "partitioner": "parmetis",
                    "ncell_group": "40",
                    "solver_type": "euler",
                    "artificial_viscosity_model": "jameson",
                    "real_gas": 0,
                    "LES_model": "no"
                }
            }
        },
        {
            "path": "/scratch/cfd/potier/TEMP_NUM/2_Poiseuille2D_AVBP/CASE_01_snc_LL_correction/RUN/avbp_20190425_142919.o",
            "contents": {
                "err_log": [
                    "before wrap up\n ok",
                    0
                ],
                "creation_time": "2019-07-11T15:05:15",
                "vars": {
                    "physical_time": 0.0020000059,
                    "final_iteration": 102387,
                    "number_of_probes": 2,
                    "CPU_time_s": 934.6,
                    "initial_iteration": 0,
                    "AVBP_version": "7.3.0",
                    "MPI_processes": 36,
                    "elapsed_time": 25.96,
                    "initial_time": 0.0,
                    "nodes": 441,
                    "mesh_cells": 400,
                    "dimension": 2,
                    "time_per_ite": 0.0002
                },
                "params": {
                    "reactive_flow": 0,
                    "CFL": "70000000",
                    "mixture_name": "N2_qpf",
                    "smu2": "0",
                    "convection_scheme": "TTGC",
                    "partitioner": "parmetis",
                    "ncell_group": "40",
                    "solver_type": "euler",
                    "artificial_viscosity_model": "jameson",
                    "real_gas": 0,
                    "LES_model": "no"
                }
            }
        },
        {
            "path": "/scratch/cfd/potier/TEMP_NUM/2_Poiseuille2D_AVBP/CASE_01_snc_LL_correction/RUN/avbp_20190425_141542.o",
            "contents": {
                "err_log": [
                    "before wrap up\n ok",
                    0
                ],
                "creation_time": "2019-07-11T15:05:15",
                "vars": {
                    "physical_time": 0.0020000046,
                    "final_iteration": 102387,
                    "number_of_probes": 2,
                    "CPU_time_s": 959.2,
                    "initial_iteration": 0,
                    "AVBP_version": "7.3.0",
                    "MPI_processes": 36,
                    "elapsed_time": 26.64,
                    "initial_time": 0.0,
                    "nodes": 441,
                    "mesh_cells": 400,
                    "dimension": 2,
                    "time_per_ite": 0.0003
                },
                "params": {
                    "reactive_flow": 0,
                    "CFL": "70000000",
                    "mixture_name": "N2_qpf",
                    "smu2": "0",
                    "convection_scheme": "TTGC",
                    "partitioner": "parmetis",
                    "ncell_group": "40",
                    "solver_type": "euler",
                    "artificial_viscosity_model": "jameson",
                    "real_gas": 0,
                    "LES_model": "no"
                }
            }
        },
        {
            "path": "/scratch/cfd/potier/TEMP_NUM/2_Poiseuille2D_AVBP/CASE_01_snc_LL_correction/RUN/avbp_20190425_110615.o",
            "contents": {
                "err_log": [
                    "before run params",
                    110
                ],
                "creation_time": "2019-07-11T15:05:15",
                "vars": {
                    "physical_time": 3.686441e-06,
                    "final_iteration": 194,
                    "number_of_probes": 2,
                    "CPU_time_s": 28.77,
                    "initial_iteration": 0,
                    "AVBP_version": "7.3.0",
                    "MPI_processes": 36,
                    "elapsed_time": 0.8,
                    "initial_time": 0.0,
                    "nodes": 441,
                    "mesh_cells": 400,
                    "dimension": 2,
                    "time_per_ite": 0.0019
                },
                "params": {
                    "reactive_flow": 0,
                    "CFL": "70000000",
                    "mixture_name": "N2_qpf",
                    "smu2": "0",
                    "convection_scheme": "TTGC",
                    "partitioner": "parmetis",
                    "ncell_group": "40",
                    "solver_type": "euler",
                    "artificial_viscosity_model": "jameson",
                    "real_gas": 0,
                    "LES_model": "no"
                }
            }
        },
        {
            "path": "/scratch/cfd/potier/TEMP_NUM/2_Poiseuille2D_AVBP/CASE_01_snc_LL_correction/RUN/avbp_20190425_142416.o",
            "contents": {
                "err_log": [
                    "before wrap up\n ok",
                    0
                ],
                "creation_time": "2019-07-11T15:05:15",
                "vars": {
                    "physical_time": 0.0020000059,
                    "final_iteration": 102387,
                    "number_of_probes": 2,
                    "CPU_time_s": 965.0,
                    "initial_iteration": 0,
                    "AVBP_version": "7.3.0",
                    "MPI_processes": 36,
                    "elapsed_time": 26.81,
                    "initial_time": 0.0,
                    "nodes": 441,
                    "mesh_cells": 400,
                    "dimension": 2,
                    "time_per_ite": 0.0003
                },
                "params": {
                    "reactive_flow": 0,
                    "CFL": "70000000",
                    "mixture_name": "N2_qpf",
                    "smu2": "0",
                    "convection_scheme": "TTGC",
                    "partitioner": "parmetis",
                    "ncell_group": "40",
                    "solver_type": "euler",
                    "artificial_viscosity_model": "jameson",
                    "real_gas": 0,
                    "LES_model": "no"
                }
            }
        },
        {
            "path": "/scratch/cfd/potier/TEMP_NUM/2_Poiseuille2D_AVBP/CASE_01_snc_LL_correction/RUN/avbp.o",
            "contents": {
                "err_log": [
                    "before wrap up\n ok",
                    0
                ],
                "creation_time": "2019-07-11T15:05:15",
                "vars": {
                    "physical_time": 0.0020000059,
                    "final_iteration": 102387,
                    "number_of_probes": 2,
                    "CPU_time_s": 934.6,
                    "initial_iteration": 0,
                    "AVBP_version": "7.3.0",
                    "MPI_processes": 36,
                    "elapsed_time": 25.96,
                    "initial_time": 0.0,
                    "nodes": 441,
                    "mesh_cells": 400,
                    "dimension": 2,
                    "time_per_ite": 0.0002
                },
                "params": {
                    "reactive_flow": 0,
                    "CFL": "70000000",
                    "mixture_name": "N2_qpf",
                    "smu2": "0",
                    "convection_scheme": "TTGC",
                    "partitioner": "parmetis",
                    "ncell_group": "40",
                    "solver_type": "euler",
                    "artificial_viscosity_model": "jameson",
                    "real_gas": 0,
                    "LES_model": "no"
                }
            }
        },
        {
            "path": "/scratch/cfd/potier/TEMP_NUM/2_Poiseuille2D_AVBP/CASE_01_snc_LL_correction/RUN/avbp_20190425_105249.o",
            "contents": {
                "err_log": [
                    "before run params",
                    110
                ],
                "creation_time": "2019-07-11T15:05:15",
                "vars": {
                    "physical_time": 3.686441e-06,
                    "final_iteration": 194,
                    "number_of_probes": 2,
                    "CPU_time_s": 34.33,
                    "initial_iteration": 0,
                    "AVBP_version": "7.3.0",
                    "MPI_processes": 36,
                    "elapsed_time": 0.95,
                    "initial_time": 0.0,
                    "nodes": 441,
                    "mesh_cells": 400,
                    "dimension": 2,
                    "time_per_ite": 0.0027
                },
                "params": {
                    "reactive_flow": 0,
                    "CFL": "70000000",
                    "mixture_name": "N2_qpf",
                    "smu2": "0",
                    "convection_scheme": "TTGC",
                    "partitioner": "parmetis",
                    "ncell_group": "40",
                    "solver_type": "euler",
                    "artificial_viscosity_model": "jameson",
                    "real_gas": 0,
                    "LES_model": "no"
                }
            }
        },
        {
            "path": "/scratch/cfd/potier/TEMP_NUM/2_Poiseuille2D_AVBP/CASE_01_snc_LL_correction/RUN/avbp_20190425_105214.o",
            "contents": {
                "err_log": [
                    "before run params",
                    110
                ],
                "creation_time": "2019-07-11T15:05:16",
                "vars": {
                    "physical_time": 3.686441e-06,
                    "final_iteration": 194,
                    "number_of_probes": 2,
                    "CPU_time_s": 40.91,
                    "initial_iteration": 0,
                    "AVBP_version": "7.3.0",
                    "MPI_processes": 36,
                    "elapsed_time": 1.14,
                    "initial_time": 0.0,
                    "nodes": 441,
                    "mesh_cells": 400,
                    "dimension": 2,
                    "time_per_ite": 0.0023
                },
                "params": {
                    "reactive_flow": 0,
                    "CFL": "70000000",
                    "mixture_name": "N2_qpf",
                    "smu2": "0",
                    "convection_scheme": "TTGC",
                    "partitioner": "parmetis",
                    "ncell_group": "40",
                    "solver_type": "euler",
                    "artificial_viscosity_model": "jameson",
                    "real_gas": 0,
                    "LES_model": "no"
                }
            }
        },
        {
            "path": "/scratch/cfd/potier/TEMP_NUM/2_Poiseuille2D_AVBP/CASE_01_snc_LL_correction/RUN/avbp_20190425_140353.o",
            "contents": {
                "err_log": [
                    "before run params",
                    110
                ],
                "creation_time": "2019-07-11T15:05:16",
                "vars": {
                    "physical_time": 1.2988028e-07,
                    "final_iteration": 7,
                    "number_of_probes": 2,
                    "CPU_time_s": 48.29,
                    "initial_iteration": 0,
                    "AVBP_version": "7.3.0",
                    "MPI_processes": 36,
                    "elapsed_time": 1.34,
                    "initial_time": 0.0,
                    "nodes": 441,
                    "mesh_cells": 400,
                    "dimension": 2,
                    "time_per_ite": 0.0738
                },
                "params": {
                    "reactive_flow": 0,
                    "CFL": "70000000",
                    "mixture_name": "N2_qpf",
                    "smu2": "0",
                    "convection_scheme": "TTGC",
                    "partitioner": "parmetis",
                    "ncell_group": "40",
                    "solver_type": "euler",
                    "artificial_viscosity_model": "jameson",
                    "real_gas": 0,
                    "LES_model": "no"
                }
            }
        },
        {
            "path": "/scratch/cfd/potier/TEMP_NUM/2_Poiseuille2D_AVBP/CASE_01_snc_LL_correction/RUN/avbp_20190425_140005.o",
            "contents": {
                "err_log": [
                    "before run params",
                    110
                ],
                "creation_time": "2019-07-11T15:05:16",
                "vars": {
                    "physical_time": 5.3113463e-05,
                    "final_iteration": 2746,
                    "number_of_probes": 2,
                    "CPU_time_s": 44.53,
                    "initial_iteration": 0,
                    "AVBP_version": "7.3.0",
                    "MPI_processes": 36,
                    "elapsed_time": 1.24,
                    "initial_time": 0.0,
                    "nodes": 441,
                    "mesh_cells": 400,
                    "dimension": 2,
                    "time_per_ite": 0.0003
                },
                "params": {
                    "reactive_flow": 0,
                    "CFL": "70000000",
                    "mixture_name": "N2_qpf",
                    "smu2": "0",
                    "convection_scheme": "TTGC",
                    "partitioner": "parmetis",
                    "ncell_group": "40",
                    "solver_type": "euler",
                    "artificial_viscosity_model": "jameson",
                    "real_gas": 0,
                    "LES_model": "no"
                }
            }
        },
        {
            "path": "/scratch/cfd/potier/TEMP_NUM/2_Poiseuille2D_AVBP/CASE_01_snc_LL_correction/RUN/avbp_20190425_121351.o",
            "contents": {
                "err_log": [
                    "before run params",
                    110
                ],
                "creation_time": "2019-07-11T15:05:16",
                "vars": {
                    "physical_time": 5.3113463e-05,
                    "final_iteration": 2746,
                    "number_of_probes": 2,
                    "CPU_time_s": 232.3,
                    "initial_iteration": 0,
                    "AVBP_version": "7.3.0",
                    "MPI_processes": 36,
                    "elapsed_time": 6.45,
                    "initial_time": 0.0,
                    "nodes": 441,
                    "mesh_cells": 400,
                    "dimension": 2,
                    "time_per_ite": 0.0021
                },
                "params": {
                    "reactive_flow": 0,
                    "CFL": "70000000",
                    "mixture_name": "N2_qpf",
                    "smu2": "0",
                    "convection_scheme": "TTGC",
                    "partitioner": "parmetis",
                    "ncell_group": "40",
                    "solver_type": "euler",
                    "artificial_viscosity_model": "jameson",
                    "real_gas": 0,
                    "LES_model": "no"
                }
            }
        },
        {
            "path": "/scratch/cfd/potier/TEMP_NUM/2_Poiseuille2D_AVBP/CASE_01_snc_LL_correction/RUN/avbp_20190425_140450.o",
            "contents": {
                "err_log": [
                    "before run params",
                    110
                ],
                "creation_time": "2019-07-11T15:05:16",
                "vars": {
                    "physical_time": 1.9798439e-07,
                    "final_iteration": 11,
                    "number_of_probes": 2,
                    "CPU_time_s": 35.35,
                    "initial_iteration": 0,
                    "AVBP_version": "7.3.0",
                    "MPI_processes": 36,
                    "elapsed_time": 0.98,
                    "initial_time": 0.0,
                    "nodes": 441,
                    "mesh_cells": 400,
                    "dimension": 2,
                    "time_per_ite": 0.0327
                },
                "params": {
                    "reactive_flow": 0,
                    "CFL": "70000000",
                    "mixture_name": "N2_qpf",
                    "smu2": "0",
                    "convection_scheme": "TTGC",
                    "partitioner": "parmetis",
                    "ncell_group": "40",
                    "solver_type": "euler",
                    "artificial_viscosity_model": "jameson",
                    "real_gas": 0,
                    "LES_model": "no"
                }
            }
        },
        {
            "path": "/scratch/cfd/potier/TEMP_NUM/2_Poiseuille2D_AVBP/CASE_01_snc_LL_correction/RUN/avbp_20190425_135935.o",
            "contents": {
                "err_log": [
                    "before wrap up\n ok",
                    0
                ],
                "creation_time": "2019-07-11T15:05:16",
                "vars": {
                    "physical_time": 0.0020000046,
                    "final_iteration": 102387,
                    "number_of_probes": 2,
                    "CPU_time_s": 970.0,
                    "initial_iteration": 0,
                    "AVBP_version": "7.3.0",
                    "MPI_processes": 36,
                    "elapsed_time": 26.94,
                    "initial_time": 0.0,
                    "nodes": 441,
                    "mesh_cells": 400,
                    "dimension": 2,
                    "time_per_ite": 0.0003
                },
                "params": {
                    "reactive_flow": 0,
                    "CFL": "70000000",
                    "mixture_name": "N2_qpf",
                    "smu2": "0",
                    "convection_scheme": "TTGC",
                    "partitioner": "parmetis",
                    "ncell_group": "40",
                    "solver_type": "euler",
                    "artificial_viscosity_model": "jameson",
                    "real_gas": 0,
                    "LES_model": "no"
                }
            }
        }
    ]
}