{
    "log_monitoring": [
        {
            "path": "/scratch/cfd/pouech/DNS_IGNIT/MIE/LU19/CORREL/Rd_influence/NULL/RUN/avbp_20180727_192002.o",
            "contents": {
                "err_log": [
                    "before wrap up\n ok",
                    0
                ],
                "creation_time": "2018-07-27T19:20:02",
                "vars": {
                    "physical_time": 0.00022000275,
                    "final_iteration": 69355,
                    "number_of_probes": 2,
                    "CPU_time_s": 385700.0,
                    "initial_iteration": 0,
                    "AVBP_version": "7.2.0",
                    "MPI_processes": 240,
                    "elapsed_time": 1606.93,
                    "initial_time": 0.0,
                    "nodes": 340643,
                    "mesh_cells": 681020,
                    "dimension": 2,
                    "time_per_ite": 0.0232
                },
                "params": {
                    "reactive_flow": 1,
                    "CFL": "70000000",
                    "mixture_name": "CH4_LU_19",
                    "smu2": "0",
                    "convection_scheme": "LW_FE",
                    "partitioner": "parmetis",
                    "ncell_group": "40",
                    "solver_type": "ns",
                    "artificial_viscosity_model": "no",
                    "LES_model": "no"
                }
            }
        },
        {
            "path": "/scratch/cfd/pouech/DNS_IGNIT/MIE/LU19/CORREL/Rd_influence/NULL/RUN/avbp.o",
            "contents": {
                "err_log": [
                    "before wrap up\n ok",
                    0
                ],
                "creation_time": "2018-07-31T13:56:52",
                "vars": {
                    "physical_time": 0.00022000478,
                    "final_iteration": 104863,
                    "number_of_probes": 2,
                    "CPU_time_s": 585700.0,
                    "initial_iteration": 0,
                    "AVBP_version": "7.2.0",
                    "MPI_processes": 240,
                    "elapsed_time": 2440.48,
                    "initial_time": 0.0,
                    "nodes": 340643,
                    "mesh_cells": 681020,
                    "dimension": 2,
                    "time_per_ite": 0.0233
                },
                "params": {
                    "reactive_flow": 1,
                    "CFL": "70000000",
                    "mixture_name": "CH4_LU_19",
                    "smu2": "0",
                    "convection_scheme": "LW_FE",
                    "partitioner": "parmetis",
                    "ncell_group": "40",
                    "solver_type": "ns",
                    "artificial_viscosity_model": "no",
                    "LES_model": "no"
                }
            }
        },
        {
            "path": "/scratch/cfd/pouech/DNS_IGNIT/MIE/LU19/CORREL/Rd_influence/NULL/RUN/avbp_20180731_135652.o",
            "contents": {
                "err_log": [
                    "before wrap up\n ok",
                    0
                ],
                "creation_time": "2018-07-31T13:56:52",
                "vars": {
                    "physical_time": 0.00022000478,
                    "final_iteration": 104863,
                    "number_of_probes": 2,
                    "CPU_time_s": 585700.0,
                    "initial_iteration": 0,
                    "AVBP_version": "7.2.0",
                    "MPI_processes": 240,
                    "elapsed_time": 2440.48,
                    "initial_time": 0.0,
                    "nodes": 340643,
                    "mesh_cells": 681020,
                    "dimension": 2,
                    "time_per_ite": 0.0233
                },
                "params": {
                    "reactive_flow": 1,
                    "CFL": "70000000",
                    "mixture_name": "CH4_LU_19",
                    "smu2": "0",
                    "convection_scheme": "LW_FE",
                    "partitioner": "parmetis",
                    "ncell_group": "40",
                    "solver_type": "ns",
                    "artificial_viscosity_model": "no",
                    "LES_model": "no"
                }
            }
        },
        {
            "path": "/scratch/cfd/pouech/DNS_IGNIT/MIE/LU19/CORREL/Rd_influence/NULL/RUN/avbp_20180730_232009.o",
            "contents": {
                "err_log": [
                    "before wrap up\n ok",
                    0
                ],
                "creation_time": "2018-07-30T23:20:09",
                "vars": {
                    "physical_time": 0.00022000193,
                    "final_iteration": 83931,
                    "number_of_probes": 2,
                    "CPU_time_s": 537200.0,
                    "initial_iteration": 0,
                    "AVBP_version": "7.2.0",
                    "MPI_processes": 240,
                    "elapsed_time": 2238.45,
                    "initial_time": 0.0,
                    "nodes": 340643,
                    "mesh_cells": 681020,
                    "dimension": 2,
                    "time_per_ite": 0.0267
                },
                "params": {
                    "reactive_flow": 1,
                    "CFL": "70000000",
                    "mixture_name": "CH4_LU_19",
                    "smu2": "0",
                    "convection_scheme": "LW_FE",
                    "partitioner": "parmetis",
                    "ncell_group": "40",
                    "solver_type": "ns",
                    "artificial_viscosity_model": "no",
                    "LES_model": "no"
                }
            }
        }
    ]
}