{
    "log_monitoring": [
        {
            "path": "/scratch/cfd/pouech/DNS_IGNIT/BFS/3D/HIGH/ER/avbp_20180802_204818.o",
            "contents": {
                "err_log": [
                    "before wrap up\n ok",
                    0
                ],
                "creation_time": "2018-12-02T17:17:04",
                "vars": {
                    "physical_time": 0.010000006,
                    "final_iteration": 1090833,
                    "number_of_probes": 10,
                    "CPU_time_s": 6757000.0,
                    "initial_iteration": 929267,
                    "AVBP_version": "7.2.0",
                    "MPI_processes": 1400,
                    "elapsed_time": 4826.22,
                    "initial_time": 0.0085000076,
                    "nodes": 2009774,
                    "mesh_cells": 10490986,
                    "dimension": 3,
                    "time_per_ite": 0.0291
                },
                "params": {
                    "reactive_flow": 0,
                    "CFL": "70000000",
                    "mixture_name": "CH4",
                    "smu2": "0",
                    "convection_scheme": "LW",
                    "ncell_group": "100",
                    "solver_type": "ns",
                    "artificial_viscosity_model": "colin",
                    "LES_model": "no"
                }
            }
        },
        {
            "path": "/scratch/cfd/pouech/DNS_IGNIT/BFS/3D/HIGH/ER/avbp.o",
            "contents": {
                "err_log": [
                    "before wrap up\n ok",
                    0
                ],
                "creation_time": "2018-12-02T17:17:04",
                "vars": {
                    "physical_time": 0.015000002,
                    "final_iteration": 1284029,
                    "number_of_probes": 10,
                    "CPU_time_s": 18530000.0,
                    "initial_iteration": 855831,
                    "AVBP_version": "7.2.0",
                    "MPI_processes": 1400,
                    "elapsed_time": 13232.43,
                    "initial_time": 0.01,
                    "nodes": 2158470,
                    "mesh_cells": 11332697,
                    "dimension": 3,
                    "time_per_ite": 0.0308
                },
                "params": {
                    "reactive_flow": 0,
                    "CFL": "70000000",
                    "mixture_name": "CH4",
                    "smu2": "0",
                    "convection_scheme": "LW",
                    "ncell_group": "100",
                    "solver_type": "ns",
                    "artificial_viscosity_model": "colin",
                    "LES_model": "no"
                }
            }
        },
        {
            "path": "/scratch/cfd/pouech/DNS_IGNIT/BFS/3D/HIGH/ER/avbp_20181006_074814.o",
            "contents": {
                "err_log": [
                    "before wrap up\n ok",
                    0
                ],
                "creation_time": "2018-12-02T17:17:04",
                "vars": {
                    "physical_time": 0.0050000098,
                    "final_iteration": 426998,
                    "number_of_probes": 10,
                    "CPU_time_s": 17480000.0,
                    "initial_iteration": 0,
                    "AVBP_version": "7.2.0",
                    "MPI_processes": 1400,
                    "elapsed_time": 12486.79,
                    "initial_time": 0.0,
                    "nodes": 2158470,
                    "mesh_cells": 11332697,
                    "dimension": 3,
                    "time_per_ite": 0.0291
                },
                "params": {
                    "reactive_flow": 0,
                    "CFL": "70000000",
                    "mixture_name": "CH4",
                    "smu2": "0",
                    "convection_scheme": "LW",
                    "ncell_group": "100",
                    "solver_type": "ns",
                    "artificial_viscosity_model": "colin",
                    "LES_model": "no"
                }
            }
        },
        {
            "path": "/scratch/cfd/pouech/DNS_IGNIT/BFS/3D/HIGH/ER/avbp_20181013_015819.o",
            "contents": {
                "err_log": [
                    "before wrap up\n ok",
                    0
                ],
                "creation_time": "2018-12-02T17:17:04",
                "vars": {
                    "physical_time": 0.015000008,
                    "final_iteration": 1282728,
                    "number_of_probes": 10,
                    "CPU_time_s": 37510000.0,
                    "initial_iteration": 426998,
                    "AVBP_version": "7.2.0",
                    "MPI_processes": 1400,
                    "elapsed_time": 26794.63,
                    "initial_time": 0.0050000098,
                    "nodes": 2158470,
                    "mesh_cells": 11332697,
                    "dimension": 3,
                    "time_per_ite": 0.0313
                },
                "params": {
                    "reactive_flow": 0,
                    "CFL": "70000000",
                    "mixture_name": "CH4",
                    "smu2": "0",
                    "convection_scheme": "LW",
                    "ncell_group": "100",
                    "solver_type": "ns",
                    "artificial_viscosity_model": "colin",
                    "LES_model": "no"
                }
            }
        },
        {
            "path": "/scratch/cfd/pouech/DNS_IGNIT/BFS/3D/HIGH/ER/avbp_20181014_215855.o",
            "contents": {
                "err_log": [
                    "before wrap up\n ok",
                    0
                ],
                "creation_time": "2018-12-02T17:17:04",
                "vars": {
                    "physical_time": 0.015000002,
                    "final_iteration": 1284029,
                    "number_of_probes": 10,
                    "CPU_time_s": 18530000.0,
                    "initial_iteration": 855831,
                    "AVBP_version": "7.2.0",
                    "MPI_processes": 1400,
                    "elapsed_time": 13232.43,
                    "initial_time": 0.01,
                    "nodes": 2158470,
                    "mesh_cells": 11332697,
                    "dimension": 3,
                    "time_per_ite": 0.0308
                },
                "params": {
                    "reactive_flow": 0,
                    "CFL": "70000000",
                    "mixture_name": "CH4",
                    "smu2": "0",
                    "convection_scheme": "LW",
                    "ncell_group": "100",
                    "solver_type": "ns",
                    "artificial_viscosity_model": "colin",
                    "LES_model": "no"
                }
            }
        },
        {
            "path": "/scratch/cfd/pouech/DNS_IGNIT/BFS/3D/HIGH/ER/avbp_20181004_161136.o",
            "contents": {
                "err_log": [
                    "before wrap up\n ok",
                    0
                ],
                "creation_time": "2018-12-02T17:17:04",
                "vars": {
                    "physical_time": 0.01,
                    "final_iteration": 855831,
                    "number_of_probes": 10,
                    "CPU_time_s": 20800000.0,
                    "initial_iteration": 367934,
                    "AVBP_version": "7.2.0",
                    "MPI_processes": 1400,
                    "elapsed_time": 14857.7,
                    "initial_time": 0.0043000105,
                    "nodes": 2158470,
                    "mesh_cells": 11332697,
                    "dimension": 3,
                    "time_per_ite": 0.0304
                },
                "params": {
                    "reactive_flow": 0,
                    "CFL": "70000000",
                    "mixture_name": "CH4",
                    "smu2": "0",
                    "convection_scheme": "LW",
                    "ncell_group": "100",
                    "solver_type": "ns",
                    "artificial_viscosity_model": "colin",
                    "LES_model": "no"
                }
            }
        }
    ]
}