{
    "log_monitoring": [
        {
            "path": "/scratch/cfd/pouech/DNS_IGNIT/MIE/LU19/NULL_phi_0.6/RUN/avbp_20200819_011919.o",
            "contents": {
                "err_log": [
                    "before wrap up\n ok",
                    0
                ],
                "creation_time": "2020-08-19T01:19:19",
                "vars": {
                    "physical_time": 0.00022000088,
                    "final_iteration": 194410,
                    "number_of_probes": 2,
                    "CPU_time_s": 1062000.0,
                    "initial_iteration": 0,
                    "AVBP_version": "7.2.0",
                    "MPI_processes": 240,
                    "elapsed_time": 4426.24,
                    "initial_time": 0.0,
                    "nodes": 340643,
                    "mesh_cells": 681020,
                    "dimension": 2,
                    "time_per_ite": 0.0228
                },
                "params": {
                    "reactive_flow": 1,
                    "CFL": "70000000",
                    "mixture_name": "CH4_LU_19",
                    "smu2": "0",
                    "convection_scheme": "LW_FE",
                    "partitioner": "parmetis",
                    "ncell_group": "40",
                    "solver_type": "ns",
                    "artificial_viscosity_model": "no",
                    "LES_model": "no"
                }
            }
        },
        {
            "path": "/scratch/cfd/pouech/DNS_IGNIT/MIE/LU19/NULL_phi_0.6/RUN/avbp_20200717_195019.o",
            "contents": {
                "err_log": [
                    "before wrap up\n ok",
                    0
                ],
                "creation_time": "2020-07-17T19:50:19",
                "vars": {
                    "physical_time": 0.00022000032,
                    "final_iteration": 209530,
                    "number_of_probes": 2,
                    "CPU_time_s": 1145000.0,
                    "initial_iteration": 0,
                    "AVBP_version": "7.2.0",
                    "MPI_processes": 240,
                    "elapsed_time": 4772.07,
                    "initial_time": 0.0,
                    "nodes": 340643,
                    "mesh_cells": 681020,
                    "dimension": 2,
                    "time_per_ite": 0.0228
                },
                "params": {
                    "reactive_flow": 1,
                    "CFL": "70000000",
                    "mixture_name": "CH4_LU_19",
                    "smu2": "0",
                    "convection_scheme": "LW_FE",
                    "partitioner": "parmetis",
                    "ncell_group": "40",
                    "solver_type": "ns",
                    "artificial_viscosity_model": "no",
                    "LES_model": "no"
                }
            }
        },
        {
            "path": "/scratch/cfd/pouech/DNS_IGNIT/MIE/LU19/NULL_phi_0.6/RUN/avbp_20200819_155110.o",
            "contents": {
                "err_log": [
                    "before wrap up\n ok",
                    0
                ],
                "creation_time": "2020-08-19T15:51:10",
                "vars": {
                    "physical_time": 0.00022000032,
                    "final_iteration": 151286,
                    "number_of_probes": 2,
                    "CPU_time_s": 830100.0,
                    "initial_iteration": 0,
                    "AVBP_version": "7.2.0",
                    "MPI_processes": 240,
                    "elapsed_time": 3458.7,
                    "initial_time": 0.0,
                    "nodes": 340643,
                    "mesh_cells": 681020,
                    "dimension": 2,
                    "time_per_ite": 0.0229
                },
                "params": {
                    "reactive_flow": 1,
                    "CFL": "70000000",
                    "mixture_name": "CH4_LU_19",
                    "smu2": "0",
                    "convection_scheme": "LW_FE",
                    "partitioner": "parmetis",
                    "ncell_group": "40",
                    "solver_type": "ns",
                    "artificial_viscosity_model": "no",
                    "LES_model": "no"
                }
            }
        },
        {
            "path": "/scratch/cfd/pouech/DNS_IGNIT/MIE/LU19/NULL_phi_0.6/RUN/avbp_20200819_103054.o",
            "contents": {
                "err_log": [
                    "before wrap up\n ok",
                    0
                ],
                "creation_time": "2020-08-19T10:30:54",
                "vars": {
                    "physical_time": 0.00022000073,
                    "final_iteration": 171237,
                    "number_of_probes": 2,
                    "CPU_time_s": 937000.0,
                    "initial_iteration": 0,
                    "AVBP_version": "7.2.0",
                    "MPI_processes": 240,
                    "elapsed_time": 3903.97,
                    "initial_time": 0.0,
                    "nodes": 340643,
                    "mesh_cells": 681020,
                    "dimension": 2,
                    "time_per_ite": 0.0228
                },
                "params": {
                    "reactive_flow": 1,
                    "CFL": "70000000",
                    "mixture_name": "CH4_LU_19",
                    "smu2": "0",
                    "convection_scheme": "LW_FE",
                    "partitioner": "parmetis",
                    "ncell_group": "40",
                    "solver_type": "ns",
                    "artificial_viscosity_model": "no",
                    "LES_model": "no"
                }
            }
        },
        {
            "path": "/scratch/cfd/pouech/DNS_IGNIT/MIE/LU19/NULL_phi_0.6/RUN/avbp_20200819_081944.o",
            "contents": {
                "err_log": [
                    "before wrap up\n ok",
                    0
                ],
                "creation_time": "2020-08-19T08:19:44",
                "vars": {
                    "physical_time": 0.00022000097,
                    "final_iteration": 176801,
                    "number_of_probes": 2,
                    "CPU_time_s": 962600.0,
                    "initial_iteration": 0,
                    "AVBP_version": "7.2.0",
                    "MPI_processes": 240,
                    "elapsed_time": 4010.99,
                    "initial_time": 0.0,
                    "nodes": 340643,
                    "mesh_cells": 681020,
                    "dimension": 2,
                    "time_per_ite": 0.0227
                },
                "params": {
                    "reactive_flow": 1,
                    "CFL": "70000000",
                    "mixture_name": "CH4_LU_19",
                    "smu2": "0",
                    "convection_scheme": "LW_FE",
                    "partitioner": "parmetis",
                    "ncell_group": "40",
                    "solver_type": "ns",
                    "artificial_viscosity_model": "no",
                    "LES_model": "no"
                }
            }
        },
        {
            "path": "/scratch/cfd/pouech/DNS_IGNIT/MIE/LU19/NULL_phi_0.6/RUN/avbp_20200818_213427.o",
            "contents": {
                "err_log": [
                    "before wrap up\n ok",
                    0
                ],
                "creation_time": "2020-08-18T21:34:27",
                "vars": {
                    "physical_time": 0.00022000067,
                    "final_iteration": 203459,
                    "number_of_probes": 2,
                    "CPU_time_s": 1109000.0,
                    "initial_iteration": 0,
                    "AVBP_version": "7.2.0",
                    "MPI_processes": 240,
                    "elapsed_time": 4619.03,
                    "initial_time": 0.0,
                    "nodes": 340643,
                    "mesh_cells": 681020,
                    "dimension": 2,
                    "time_per_ite": 0.0227
                },
                "params": {
                    "reactive_flow": 1,
                    "CFL": "70000000",
                    "mixture_name": "CH4_LU_19",
                    "smu2": "0",
                    "convection_scheme": "LW_FE",
                    "partitioner": "parmetis",
                    "ncell_group": "40",
                    "solver_type": "ns",
                    "artificial_viscosity_model": "no",
                    "LES_model": "no"
                }
            }
        },
        {
            "path": "/scratch/cfd/pouech/DNS_IGNIT/MIE/LU19/NULL_phi_0.6/RUN/avbp_20200819_092548.o",
            "contents": {
                "err_log": [
                    "before wrap up\n ok",
                    0
                ],
                "creation_time": "2020-08-19T09:25:48",
                "vars": {
                    "physical_time": 0.00022000064,
                    "final_iteration": 173994,
                    "number_of_probes": 2,
                    "CPU_time_s": 951000.0,
                    "initial_iteration": 0,
                    "AVBP_version": "7.2.0",
                    "MPI_processes": 240,
                    "elapsed_time": 3962.29,
                    "initial_time": 0.0,
                    "nodes": 340643,
                    "mesh_cells": 681020,
                    "dimension": 2,
                    "time_per_ite": 0.0228
                },
                "params": {
                    "reactive_flow": 1,
                    "CFL": "70000000",
                    "mixture_name": "CH4_LU_19",
                    "smu2": "0",
                    "convection_scheme": "LW_FE",
                    "partitioner": "parmetis",
                    "ncell_group": "40",
                    "solver_type": "ns",
                    "artificial_viscosity_model": "no",
                    "LES_model": "no"
                }
            }
        },
        {
            "path": "/scratch/cfd/pouech/DNS_IGNIT/MIE/LU19/NULL_phi_0.6/RUN/avbp_20200818_201726.o",
            "contents": {
                "err_log": [
                    "before wrap up\n ok",
                    0
                ],
                "creation_time": "2020-08-18T20:17:26",
                "vars": {
                    "physical_time": 0.00022000095,
                    "final_iteration": 206492,
                    "number_of_probes": 2,
                    "CPU_time_s": 1135000.0,
                    "initial_iteration": 0,
                    "AVBP_version": "7.2.0",
                    "MPI_processes": 240,
                    "elapsed_time": 4729.16,
                    "initial_time": 0.0,
                    "nodes": 340643,
                    "mesh_cells": 681020,
                    "dimension": 2,
                    "time_per_ite": 0.0229
                },
                "params": {
                    "reactive_flow": 1,
                    "CFL": "70000000",
                    "mixture_name": "CH4_LU_19",
                    "smu2": "0",
                    "convection_scheme": "LW_FE",
                    "partitioner": "parmetis",
                    "ncell_group": "40",
                    "solver_type": "ns",
                    "artificial_viscosity_model": "no",
                    "LES_model": "no"
                }
            }
        },
        {
            "path": "/scratch/cfd/pouech/DNS_IGNIT/MIE/LU19/NULL_phi_0.6/RUN/avbp_20200819_134724.o",
            "contents": {
                "err_log": [
                    "before wrap up\n ok",
                    0
                ],
                "creation_time": "2020-08-19T13:47:24",
                "vars": {
                    "physical_time": 0.00022000015,
                    "final_iteration": 162516,
                    "number_of_probes": 2,
                    "CPU_time_s": 900300.0,
                    "initial_iteration": 0,
                    "AVBP_version": "7.2.0",
                    "MPI_processes": 240,
                    "elapsed_time": 3751.3,
                    "initial_time": 0.0,
                    "nodes": 340643,
                    "mesh_cells": 681020,
                    "dimension": 2,
                    "time_per_ite": 0.0231
                },
                "params": {
                    "reactive_flow": 1,
                    "CFL": "70000000",
                    "mixture_name": "CH4_LU_19",
                    "smu2": "0",
                    "convection_scheme": "LW_FE",
                    "partitioner": "parmetis",
                    "ncell_group": "40",
                    "solver_type": "ns",
                    "artificial_viscosity_model": "no",
                    "LES_model": "no"
                }
            }
        },
        {
            "path": "/scratch/cfd/pouech/DNS_IGNIT/MIE/LU19/NULL_phi_0.6/RUN/avbp_20200819_123741.o",
            "contents": {
                "err_log": [
                    "before wrap up\n ok",
                    0
                ],
                "creation_time": "2020-08-19T12:37:41",
                "vars": {
                    "physical_time": 0.00022000026,
                    "final_iteration": 165667,
                    "number_of_probes": 2,
                    "CPU_time_s": 904500.0,
                    "initial_iteration": 0,
                    "AVBP_version": "7.2.0",
                    "MPI_processes": 240,
                    "elapsed_time": 3768.88,
                    "initial_time": 0.0,
                    "nodes": 340643,
                    "mesh_cells": 681020,
                    "dimension": 2,
                    "time_per_ite": 0.0227
                },
                "params": {
                    "reactive_flow": 1,
                    "CFL": "70000000",
                    "mixture_name": "CH4_LU_19",
                    "smu2": "0",
                    "convection_scheme": "LW_FE",
                    "partitioner": "parmetis",
                    "ncell_group": "40",
                    "solver_type": "ns",
                    "artificial_viscosity_model": "no",
                    "LES_model": "no"
                }
            }
        },
        {
            "path": "/scratch/cfd/pouech/DNS_IGNIT/MIE/LU19/NULL_phi_0.6/RUN/avbp_20200819_144749.o",
            "contents": {
                "err_log": [
                    "before wrap up\n ok",
                    0
                ],
                "creation_time": "2020-08-19T14:47:49",
                "vars": {
                    "physical_time": 0.00022000107,
                    "final_iteration": 158547,
                    "number_of_probes": 2,
                    "CPU_time_s": 869500.0,
                    "initial_iteration": 0,
                    "AVBP_version": "7.2.0",
                    "MPI_processes": 240,
                    "elapsed_time": 3623.0,
                    "initial_time": 0.0,
                    "nodes": 340643,
                    "mesh_cells": 681020,
                    "dimension": 2,
                    "time_per_ite": 0.0228
                },
                "params": {
                    "reactive_flow": 1,
                    "CFL": "70000000",
                    "mixture_name": "CH4_LU_19",
                    "smu2": "0",
                    "convection_scheme": "LW_FE",
                    "partitioner": "parmetis",
                    "ncell_group": "40",
                    "solver_type": "ns",
                    "artificial_viscosity_model": "no",
                    "LES_model": "no"
                }
            }
        },
        {
            "path": "/scratch/cfd/pouech/DNS_IGNIT/MIE/LU19/NULL_phi_0.6/RUN/avbp.o",
            "contents": {
                "err_log": [
                    "before wrap up\n ok",
                    0
                ],
                "creation_time": "2020-08-19T23:34:49",
                "vars": {
                    "physical_time": 0.0002200002,
                    "final_iteration": 126250,
                    "number_of_probes": 2,
                    "CPU_time_s": 693500.0,
                    "initial_iteration": 0,
                    "AVBP_version": "7.2.0",
                    "MPI_processes": 240,
                    "elapsed_time": 2889.69,
                    "initial_time": 0.0,
                    "nodes": 340643,
                    "mesh_cells": 681020,
                    "dimension": 2,
                    "time_per_ite": 0.0229
                },
                "params": {
                    "reactive_flow": 1,
                    "CFL": "70000000",
                    "mixture_name": "CH4_LU_19",
                    "smu2": "0",
                    "convection_scheme": "LW_FE",
                    "partitioner": "parmetis",
                    "ncell_group": "40",
                    "solver_type": "ns",
                    "artificial_viscosity_model": "no",
                    "LES_model": "no"
                }
            }
        },
        {
            "path": "/scratch/cfd/pouech/DNS_IGNIT/MIE/LU19/NULL_phi_0.6/RUN/avbp_20200819_233449.o",
            "contents": {
                "err_log": [
                    "before wrap up\n ok",
                    0
                ],
                "creation_time": "2020-08-19T23:34:49",
                "vars": {
                    "physical_time": 0.0002200002,
                    "final_iteration": 126250,
                    "number_of_probes": 2,
                    "CPU_time_s": 693500.0,
                    "initial_iteration": 0,
                    "AVBP_version": "7.2.0",
                    "MPI_processes": 240,
                    "elapsed_time": 2889.69,
                    "initial_time": 0.0,
                    "nodes": 340643,
                    "mesh_cells": 681020,
                    "dimension": 2,
                    "time_per_ite": 0.0229
                },
                "params": {
                    "reactive_flow": 1,
                    "CFL": "70000000",
                    "mixture_name": "CH4_LU_19",
                    "smu2": "0",
                    "convection_scheme": "LW_FE",
                    "partitioner": "parmetis",
                    "ncell_group": "40",
                    "solver_type": "ns",
                    "artificial_viscosity_model": "no",
                    "LES_model": "no"
                }
            }
        },
        {
            "path": "/scratch/cfd/pouech/DNS_IGNIT/MIE/LU19/NULL_phi_0.6/RUN/avbp_20200819_045519.o",
            "contents": {
                "err_log": [
                    "before wrap up\n ok",
                    0
                ],
                "creation_time": "2020-08-19T04:55:19",
                "vars": {
                    "physical_time": 0.00022000052,
                    "final_iteration": 185484,
                    "number_of_probes": 2,
                    "CPU_time_s": 1013000.0,
                    "initial_iteration": 0,
                    "AVBP_version": "7.2.0",
                    "MPI_processes": 240,
                    "elapsed_time": 4219.89,
                    "initial_time": 0.0,
                    "nodes": 340643,
                    "mesh_cells": 681020,
                    "dimension": 2,
                    "time_per_ite": 0.0227
                },
                "params": {
                    "reactive_flow": 1,
                    "CFL": "70000000",
                    "mixture_name": "CH4_LU_19",
                    "smu2": "0",
                    "convection_scheme": "LW_FE",
                    "partitioner": "parmetis",
                    "ncell_group": "40",
                    "solver_type": "ns",
                    "artificial_viscosity_model": "no",
                    "LES_model": "no"
                }
            }
        },
        {
            "path": "/scratch/cfd/pouech/DNS_IGNIT/MIE/LU19/NULL_phi_0.6/RUN/avbp_20200818_225038.o",
            "contents": {
                "err_log": [
                    "before wrap up\n ok",
                    0
                ],
                "creation_time": "2020-08-18T22:50:38",
                "vars": {
                    "physical_time": 0.00022000042,
                    "final_iteration": 200433,
                    "number_of_probes": 2,
                    "CPU_time_s": 1097000.0,
                    "initial_iteration": 0,
                    "AVBP_version": "7.2.0",
                    "MPI_processes": 240,
                    "elapsed_time": 4570.11,
                    "initial_time": 0.0,
                    "nodes": 340643,
                    "mesh_cells": 681020,
                    "dimension": 2,
                    "time_per_ite": 0.0228
                },
                "params": {
                    "reactive_flow": 1,
                    "CFL": "70000000",
                    "mixture_name": "CH4_LU_19",
                    "smu2": "0",
                    "convection_scheme": "LW_FE",
                    "partitioner": "parmetis",
                    "ncell_group": "40",
                    "solver_type": "ns",
                    "artificial_viscosity_model": "no",
                    "LES_model": "no"
                }
            }
        },
        {
            "path": "/scratch/cfd/pouech/DNS_IGNIT/MIE/LU19/NULL_phi_0.6/RUN/avbp_20200819_071252.o",
            "contents": {
                "err_log": [
                    "before wrap up\n ok",
                    0
                ],
                "creation_time": "2020-08-19T07:12:52",
                "vars": {
                    "physical_time": 0.00022000013,
                    "final_iteration": 179656,
                    "number_of_probes": 2,
                    "CPU_time_s": 984000.0,
                    "initial_iteration": 0,
                    "AVBP_version": "7.2.0",
                    "MPI_processes": 240,
                    "elapsed_time": 4100.1,
                    "initial_time": 0.0,
                    "nodes": 340643,
                    "mesh_cells": 681020,
                    "dimension": 2,
                    "time_per_ite": 0.0228
                },
                "params": {
                    "reactive_flow": 1,
                    "CFL": "70000000",
                    "mixture_name": "CH4_LU_19",
                    "smu2": "0",
                    "convection_scheme": "LW_FE",
                    "partitioner": "parmetis",
                    "ncell_group": "40",
                    "solver_type": "ns",
                    "artificial_viscosity_model": "no",
                    "LES_model": "no"
                }
            }
        },
        {
            "path": "/scratch/cfd/pouech/DNS_IGNIT/MIE/LU19/NULL_phi_0.6/RUN/avbp_20200819_023306.o",
            "contents": {
                "err_log": [
                    "before wrap up\n ok",
                    0
                ],
                "creation_time": "2020-08-19T02:33:06",
                "vars": {
                    "physical_time": 0.00022000037,
                    "final_iteration": 191416,
                    "number_of_probes": 2,
                    "CPU_time_s": 1062000.0,
                    "initial_iteration": 0,
                    "AVBP_version": "7.2.0",
                    "MPI_processes": 240,
                    "elapsed_time": 4425.46,
                    "initial_time": 0.0,
                    "nodes": 340643,
                    "mesh_cells": 681020,
                    "dimension": 2,
                    "time_per_ite": 0.0231
                },
                "params": {
                    "reactive_flow": 1,
                    "CFL": "70000000",
                    "mixture_name": "CH4_LU_19",
                    "smu2": "0",
                    "convection_scheme": "LW_FE",
                    "partitioner": "parmetis",
                    "ncell_group": "40",
                    "solver_type": "ns",
                    "artificial_viscosity_model": "no",
                    "LES_model": "no"
                }
            }
        },
        {
            "path": "/scratch/cfd/pouech/DNS_IGNIT/MIE/LU19/NULL_phi_0.6/RUN/avbp_20200819_060430.o",
            "contents": {
                "err_log": [
                    "before wrap up\n ok",
                    0
                ],
                "creation_time": "2020-08-19T06:04:30",
                "vars": {
                    "physical_time": 0.00022000094,
                    "final_iteration": 182554,
                    "number_of_probes": 2,
                    "CPU_time_s": 995900.0,
                    "initial_iteration": 0,
                    "AVBP_version": "7.2.0",
                    "MPI_processes": 240,
                    "elapsed_time": 4149.42,
                    "initial_time": 0.0,
                    "nodes": 340643,
                    "mesh_cells": 681020,
                    "dimension": 2,
                    "time_per_ite": 0.0227
                },
                "params": {
                    "reactive_flow": 1,
                    "CFL": "70000000",
                    "mixture_name": "CH4_LU_19",
                    "smu2": "0",
                    "convection_scheme": "LW_FE",
                    "partitioner": "parmetis",
                    "ncell_group": "40",
                    "solver_type": "ns",
                    "artificial_viscosity_model": "no",
                    "LES_model": "no"
                }
            }
        },
        {
            "path": "/scratch/cfd/pouech/DNS_IGNIT/MIE/LU19/NULL_phi_0.6/RUN/avbp_20200819_000531.o",
            "contents": {
                "err_log": [
                    "before wrap up\n ok",
                    0
                ],
                "creation_time": "2020-08-19T00:05:31",
                "vars": {
                    "physical_time": 0.00022000086,
                    "final_iteration": 197416,
                    "number_of_probes": 2,
                    "CPU_time_s": 1078000.0,
                    "initial_iteration": 0,
                    "AVBP_version": "7.2.0",
                    "MPI_processes": 240,
                    "elapsed_time": 4491.57,
                    "initial_time": 0.0,
                    "nodes": 340643,
                    "mesh_cells": 681020,
                    "dimension": 2,
                    "time_per_ite": 0.0227
                },
                "params": {
                    "reactive_flow": 1,
                    "CFL": "70000000",
                    "mixture_name": "CH4_LU_19",
                    "smu2": "0",
                    "convection_scheme": "LW_FE",
                    "partitioner": "parmetis",
                    "ncell_group": "40",
                    "solver_type": "ns",
                    "artificial_viscosity_model": "no",
                    "LES_model": "no"
                }
            }
        },
        {
            "path": "/scratch/cfd/pouech/DNS_IGNIT/MIE/LU19/NULL_phi_0.6/RUN/avbp_20200819_034458.o",
            "contents": {
                "err_log": [
                    "before wrap up\n ok",
                    0
                ],
                "creation_time": "2020-08-19T03:44:58",
                "vars": {
                    "physical_time": 0.00022000095,
                    "final_iteration": 188440,
                    "number_of_probes": 2,
                    "CPU_time_s": 1035000.0,
                    "initial_iteration": 0,
                    "AVBP_version": "7.2.0",
                    "MPI_processes": 240,
                    "elapsed_time": 4310.53,
                    "initial_time": 0.0,
                    "nodes": 340643,
                    "mesh_cells": 681020,
                    "dimension": 2,
                    "time_per_ite": 0.0229
                },
                "params": {
                    "reactive_flow": 1,
                    "CFL": "70000000",
                    "mixture_name": "CH4_LU_19",
                    "smu2": "0",
                    "convection_scheme": "LW_FE",
                    "partitioner": "parmetis",
                    "ncell_group": "40",
                    "solver_type": "ns",
                    "artificial_viscosity_model": "no",
                    "LES_model": "no"
                }
            }
        },
        {
            "path": "/scratch/cfd/pouech/DNS_IGNIT/MIE/LU19/NULL_phi_0.6/RUN/avbp_20200819_113451.o",
            "contents": {
                "err_log": [
                    "before wrap up\n ok",
                    0
                ],
                "creation_time": "2020-08-19T11:34:51",
                "vars": {
                    "physical_time": 0.00022000019,
                    "final_iteration": 168499,
                    "number_of_probes": 2,
                    "CPU_time_s": 920600.0,
                    "initial_iteration": 0,
                    "AVBP_version": "7.2.0",
                    "MPI_processes": 240,
                    "elapsed_time": 3835.64,
                    "initial_time": 0.0,
                    "nodes": 340643,
                    "mesh_cells": 681020,
                    "dimension": 2,
                    "time_per_ite": 0.0228
                },
                "params": {
                    "reactive_flow": 1,
                    "CFL": "70000000",
                    "mixture_name": "CH4_LU_19",
                    "smu2": "0",
                    "convection_scheme": "LW_FE",
                    "partitioner": "parmetis",
                    "ncell_group": "40",
                    "solver_type": "ns",
                    "artificial_viscosity_model": "no",
                    "LES_model": "no"
                }
            }
        }
    ]
}