{
    "log_monitoring": [
        {
            "path": "/scratch/cfd/pouech/DNS_IGNIT/MIE/LU19/NULL_phi_0.6/RUN_0.8/avbp_20200820_224245.o",
            "contents": {
                "err_log": [
                    "before wrap up\n ok",
                    0
                ],
                "creation_time": "2020-08-20T22:42:45",
                "vars": {
                    "physical_time": 0.00022000082,
                    "final_iteration": 180230,
                    "number_of_probes": 2,
                    "CPU_time_s": 993100.0,
                    "initial_iteration": 0,
                    "AVBP_version": "7.2.0",
                    "MPI_processes": 240,
                    "elapsed_time": 4137.91,
                    "initial_time": 0.0,
                    "nodes": 340643,
                    "mesh_cells": 681020,
                    "dimension": 2,
                    "time_per_ite": 0.023
                },
                "params": {
                    "reactive_flow": 1,
                    "CFL": "70000000",
                    "mixture_name": "CH4_LU_19",
                    "smu2": "0",
                    "convection_scheme": "LW_FE",
                    "partitioner": "parmetis",
                    "ncell_group": "40",
                    "solver_type": "ns",
                    "artificial_viscosity_model": "no",
                    "LES_model": "no"
                }
            }
        },
        {
            "path": "/scratch/cfd/pouech/DNS_IGNIT/MIE/LU19/NULL_phi_0.6/RUN_0.8/avbp_20200820_235009.o",
            "contents": {
                "err_log": [
                    "before wrap up\n ok",
                    0
                ],
                "creation_time": "2020-08-20T23:50:09",
                "vars": {
                    "physical_time": 0.00022000028,
                    "final_iteration": 177027,
                    "number_of_probes": 2,
                    "CPU_time_s": 970200.0,
                    "initial_iteration": 0,
                    "AVBP_version": "7.2.0",
                    "MPI_processes": 240,
                    "elapsed_time": 4042.45,
                    "initial_time": 0.0,
                    "nodes": 340643,
                    "mesh_cells": 681020,
                    "dimension": 2,
                    "time_per_ite": 0.0228
                },
                "params": {
                    "reactive_flow": 1,
                    "CFL": "70000000",
                    "mixture_name": "CH4_LU_19",
                    "smu2": "0",
                    "convection_scheme": "LW_FE",
                    "partitioner": "parmetis",
                    "ncell_group": "40",
                    "solver_type": "ns",
                    "artificial_viscosity_model": "no",
                    "LES_model": "no"
                }
            }
        },
        {
            "path": "/scratch/cfd/pouech/DNS_IGNIT/MIE/LU19/NULL_phi_0.6/RUN_0.8/avbp_20200820_175738.o",
            "contents": {
                "err_log": [
                    "before wrap up\n ok",
                    0
                ],
                "creation_time": "2020-08-20T17:57:38",
                "vars": {
                    "physical_time": 0.00022000014,
                    "final_iteration": 192316,
                    "number_of_probes": 2,
                    "CPU_time_s": 1055000.0,
                    "initial_iteration": 0,
                    "AVBP_version": "7.2.0",
                    "MPI_processes": 240,
                    "elapsed_time": 4394.82,
                    "initial_time": 0.0,
                    "nodes": 340643,
                    "mesh_cells": 681020,
                    "dimension": 2,
                    "time_per_ite": 0.0228
                },
                "params": {
                    "reactive_flow": 1,
                    "CFL": "70000000",
                    "mixture_name": "CH4_LU_19",
                    "smu2": "0",
                    "convection_scheme": "LW_FE",
                    "partitioner": "parmetis",
                    "ncell_group": "40",
                    "solver_type": "ns",
                    "artificial_viscosity_model": "no",
                    "LES_model": "no"
                }
            }
        },
        {
            "path": "/scratch/cfd/pouech/DNS_IGNIT/MIE/LU19/NULL_phi_0.6/RUN_0.8/avbp_20200820_213346.o",
            "contents": {
                "err_log": [
                    "before wrap up\n ok",
                    0
                ],
                "creation_time": "2020-08-20T21:33:46",
                "vars": {
                    "physical_time": 0.00022000059,
                    "final_iteration": 183234,
                    "number_of_probes": 2,
                    "CPU_time_s": 1009000.0,
                    "initial_iteration": 0,
                    "AVBP_version": "7.2.0",
                    "MPI_processes": 240,
                    "elapsed_time": 4205.44,
                    "initial_time": 0.0,
                    "nodes": 340643,
                    "mesh_cells": 681020,
                    "dimension": 2,
                    "time_per_ite": 0.0229
                },
                "params": {
                    "reactive_flow": 1,
                    "CFL": "70000000",
                    "mixture_name": "CH4_LU_19",
                    "smu2": "0",
                    "convection_scheme": "LW_FE",
                    "partitioner": "parmetis",
                    "ncell_group": "40",
                    "solver_type": "ns",
                    "artificial_viscosity_model": "no",
                    "LES_model": "no"
                }
            }
        },
        {
            "path": "/scratch/cfd/pouech/DNS_IGNIT/MIE/LU19/NULL_phi_0.6/RUN_0.8/avbp_20200821_034242.o",
            "contents": {
                "err_log": [
                    "before wrap up\n ok",
                    0
                ],
                "creation_time": "2020-08-21T03:42:42",
                "vars": {
                    "physical_time": 0.00022000012,
                    "final_iteration": 125257,
                    "number_of_probes": 2,
                    "CPU_time_s": 687800.0,
                    "initial_iteration": 0,
                    "AVBP_version": "7.2.0",
                    "MPI_processes": 240,
                    "elapsed_time": 2865.74,
                    "initial_time": 0.0,
                    "nodes": 340643,
                    "mesh_cells": 681020,
                    "dimension": 2,
                    "time_per_ite": 0.0229
                },
                "params": {
                    "reactive_flow": 1,
                    "CFL": "70000000",
                    "mixture_name": "CH4_LU_19",
                    "smu2": "0",
                    "convection_scheme": "LW_FE",
                    "partitioner": "parmetis",
                    "ncell_group": "40",
                    "solver_type": "ns",
                    "artificial_viscosity_model": "no",
                    "LES_model": "no"
                }
            }
        },
        {
            "path": "/scratch/cfd/pouech/DNS_IGNIT/MIE/LU19/NULL_phi_0.6/RUN_0.8/avbp_20200820_191302.o",
            "contents": {
                "err_log": [
                    "before wrap up\n ok",
                    0
                ],
                "creation_time": "2020-08-20T19:13:02",
                "vars": {
                    "physical_time": 0.0002200005,
                    "final_iteration": 189243,
                    "number_of_probes": 2,
                    "CPU_time_s": 1035000.0,
                    "initial_iteration": 0,
                    "AVBP_version": "7.2.0",
                    "MPI_processes": 240,
                    "elapsed_time": 4312.29,
                    "initial_time": 0.0,
                    "nodes": 340643,
                    "mesh_cells": 681020,
                    "dimension": 2,
                    "time_per_ite": 0.0228
                },
                "params": {
                    "reactive_flow": 1,
                    "CFL": "70000000",
                    "mixture_name": "CH4_LU_19",
                    "smu2": "0",
                    "convection_scheme": "LW_FE",
                    "partitioner": "parmetis",
                    "ncell_group": "40",
                    "solver_type": "ns",
                    "artificial_viscosity_model": "no",
                    "LES_model": "no"
                }
            }
        },
        {
            "path": "/scratch/cfd/pouech/DNS_IGNIT/MIE/LU19/NULL_phi_0.6/RUN_0.8/avbp.o",
            "contents": {
                "err_log": [
                    "before wrap up\n ok",
                    0
                ],
                "creation_time": "2020-08-21T03:42:42",
                "vars": {
                    "physical_time": 0.00022000012,
                    "final_iteration": 125257,
                    "number_of_probes": 2,
                    "CPU_time_s": 687800.0,
                    "initial_iteration": 0,
                    "AVBP_version": "7.2.0",
                    "MPI_processes": 240,
                    "elapsed_time": 2865.74,
                    "initial_time": 0.0,
                    "nodes": 340643,
                    "mesh_cells": 681020,
                    "dimension": 2,
                    "time_per_ite": 0.0229
                },
                "params": {
                    "reactive_flow": 1,
                    "CFL": "70000000",
                    "mixture_name": "CH4_LU_19",
                    "smu2": "0",
                    "convection_scheme": "LW_FE",
                    "partitioner": "parmetis",
                    "ncell_group": "40",
                    "solver_type": "ns",
                    "artificial_viscosity_model": "no",
                    "LES_model": "no"
                }
            }
        },
        {
            "path": "/scratch/cfd/pouech/DNS_IGNIT/MIE/LU19/NULL_phi_0.6/RUN_0.8/avbp_20200821_005601.o",
            "contents": {
                "err_log": [
                    "before wrap up\n ok",
                    0
                ],
                "creation_time": "2020-08-21T00:56:01",
                "vars": {
                    "physical_time": 0.00022000042,
                    "final_iteration": 173283,
                    "number_of_probes": 2,
                    "CPU_time_s": 948200.0,
                    "initial_iteration": 0,
                    "AVBP_version": "7.2.0",
                    "MPI_processes": 240,
                    "elapsed_time": 3950.73,
                    "initial_time": 0.0,
                    "nodes": 340643,
                    "mesh_cells": 681020,
                    "dimension": 2,
                    "time_per_ite": 0.0228
                },
                "params": {
                    "reactive_flow": 1,
                    "CFL": "70000000",
                    "mixture_name": "CH4_LU_19",
                    "smu2": "0",
                    "convection_scheme": "LW_FE",
                    "partitioner": "parmetis",
                    "ncell_group": "40",
                    "solver_type": "ns",
                    "artificial_viscosity_model": "no",
                    "LES_model": "no"
                }
            }
        },
        {
            "path": "/scratch/cfd/pouech/DNS_IGNIT/MIE/LU19/NULL_phi_0.6/RUN_0.8/avbp_20200820_202338.o",
            "contents": {
                "err_log": [
                    "before wrap up\n ok",
                    0
                ],
                "creation_time": "2020-08-20T20:23:38",
                "vars": {
                    "physical_time": 0.00022000016,
                    "final_iteration": 186219,
                    "number_of_probes": 2,
                    "CPU_time_s": 1016000.0,
                    "initial_iteration": 0,
                    "AVBP_version": "7.2.0",
                    "MPI_processes": 240,
                    "elapsed_time": 4234.29,
                    "initial_time": 0.0,
                    "nodes": 340643,
                    "mesh_cells": 681020,
                    "dimension": 2,
                    "time_per_ite": 0.0227
                },
                "params": {
                    "reactive_flow": 1,
                    "CFL": "70000000",
                    "mixture_name": "CH4_LU_19",
                    "smu2": "0",
                    "convection_scheme": "LW_FE",
                    "partitioner": "parmetis",
                    "ncell_group": "40",
                    "solver_type": "ns",
                    "artificial_viscosity_model": "no",
                    "LES_model": "no"
                }
            }
        },
        {
            "path": "/scratch/cfd/pouech/DNS_IGNIT/MIE/LU19/NULL_phi_0.6/RUN_0.8/avbp_20200821_015959.o",
            "contents": {
                "err_log": [
                    "before wrap up\n ok",
                    0
                ],
                "creation_time": "2020-08-21T01:59:59",
                "vars": {
                    "physical_time": 0.00022000093,
                    "final_iteration": 168085,
                    "number_of_probes": 2,
                    "CPU_time_s": 920800.0,
                    "initial_iteration": 0,
                    "AVBP_version": "7.2.0",
                    "MPI_processes": 240,
                    "elapsed_time": 3836.81,
                    "initial_time": 0.0,
                    "nodes": 340643,
                    "mesh_cells": 681020,
                    "dimension": 2,
                    "time_per_ite": 0.0228
                },
                "params": {
                    "reactive_flow": 1,
                    "CFL": "70000000",
                    "mixture_name": "CH4_LU_19",
                    "smu2": "0",
                    "convection_scheme": "LW_FE",
                    "partitioner": "parmetis",
                    "ncell_group": "40",
                    "solver_type": "ns",
                    "artificial_viscosity_model": "no",
                    "LES_model": "no"
                }
            }
        },
        {
            "path": "/scratch/cfd/pouech/DNS_IGNIT/MIE/LU19/NULL_phi_0.6/RUN_0.8/avbp_20200821_025454.o",
            "contents": {
                "err_log": [
                    "before wrap up\n ok",
                    0
                ],
                "creation_time": "2020-08-21T02:54:54",
                "vars": {
                    "physical_time": 0.00022000034,
                    "final_iteration": 144411,
                    "number_of_probes": 2,
                    "CPU_time_s": 790200.0,
                    "initial_iteration": 0,
                    "AVBP_version": "7.2.0",
                    "MPI_processes": 240,
                    "elapsed_time": 3292.62,
                    "initial_time": 0.0,
                    "nodes": 340643,
                    "mesh_cells": 681020,
                    "dimension": 2,
                    "time_per_ite": 0.0228
                },
                "params": {
                    "reactive_flow": 1,
                    "CFL": "70000000",
                    "mixture_name": "CH4_LU_19",
                    "smu2": "0",
                    "convection_scheme": "LW_FE",
                    "partitioner": "parmetis",
                    "ncell_group": "40",
                    "solver_type": "ns",
                    "artificial_viscosity_model": "no",
                    "LES_model": "no"
                }
            }
        }
    ]
}