{
    "log_monitoring": [
        {
            "path": "/scratch/coop/gullaud/WKDIR/1D_FLAME_MARCH/RUN/avbp.o",
            "contents": {
                "err_log": [
                    "before run params",
                    110
                ],
                "creation_time": "2020-04-04T16:17:06",
                "vars": {
                    "initial_iteration": 0,
                    "AVBP_version": "7.5.0",
                    "MPI_processes": 1,
                    "initial_time": 0.0,
                    "nodes": 1602,
                    "mesh_cells": 800,
                    "dimension": 2
                },
                "params": {
                    "reactive_flow": 1,
                    "CFL": "70000000",
                    "mixture_name": "C3H8",
                    "smu2": "0",
                    "convection_scheme": "LW",
                    "partitioner": "parmetis",
                    "ncell_group": "40",
                    "solver_type": "ns",
                    "artificial_viscosity_model": "colin",
                    "LES_model": "no"
                }
            }
        }
    ]
}