{
    "log_monitoring": [
        {
            "path": "/scratch/cfd/potier/DEOILER/DEBUG/AVBP02/avbp.o",
            "contents": {
                "err_log": [
                    "before run params",
                    110
                ],
                "creation_time": "2019-07-24T09:22:38",
                "vars": {
                    "number_of_probes": 2,
                    "initial_iteration": 2,
                    "AVBP_version": "7.4.0",
                    "MPI_processes": 2,
                    "elapsed_time": 2.0,
                    "initial_time": 2.0,
                    "nodes": 2,
                    "mesh_cells": 2,
                    "dimension": 2
                },
                "params": {
                    "reactive_flow": 0,
                    "CFL": "70000000",
                    "mixture_name": "AIR",
                    "smu2": "0",
                    "convection_scheme": "LW",
                    "partitioner": "parmetis",
                    "two_phase_flow": 0,
                    "ncell_group": "100",
                    "solver_type": "ns",
                    "artificial_viscosity_model": "Jameson",
                    "real_gas": 0,
                    "LES_model": "smago"
                }
            }
        }
    ]
}