{
    "log_monitoring": [
        {
            "path": "/scratch/cfd/pouech/DNS_IGNIT/BFS/3D/HIGH_COMB/RUN_2500/avbp_20200831_180557.o",
            "contents": {
                "err_log": [
                    "before wrap up\n ok",
                    0
                ],
                "creation_time": "2020-08-31T18:05:57",
                "vars": {
                    "physical_time": 0.0010000103,
                    "final_iteration": 161473,
                    "number_of_probes": 10,
                    "CPU_time_s": 3114.0,
                    "initial_iteration": 161472,
                    "AVBP_version": "7.6.0",
                    "MPI_processes": 240,
                    "elapsed_time": 12.98,
                    "initial_time": 0.0010000022,
                    "nodes": 2679574,
                    "mesh_cells": 14344910,
                    "dimension": 3,
                    "time_per_ite": 8.9539
                },
                "params": {
                    "reactive_flow": 1,
                    "CFL": "70000000",
                    "mixture_name": "CH4_19_184_11_LU",
                    "smu2": "0",
                    "convection_scheme": "LW",
                    "solver_type": "ns",
                    "artificial_viscosity_model": "colin",
                    "LES_model": "no"
                }
            }
        },
        {
            "path": "/scratch/cfd/pouech/DNS_IGNIT/BFS/3D/HIGH_COMB/RUN_2500/avbp_20200901_021045.o",
            "contents": {
                "err_log": [
                    "before wrap up\n ok",
                    0
                ],
                "creation_time": "2020-09-01T02:10:45",
                "vars": {
                    "physical_time": 0.0010114402,
                    "final_iteration": 162872,
                    "number_of_probes": 10,
                    "CPU_time_s": 112400.0,
                    "initial_iteration": 161472,
                    "AVBP_version": "7.6.0",
                    "MPI_processes": 48,
                    "elapsed_time": 2341.03,
                    "initial_time": 0.0010000022,
                    "nodes": 2679574,
                    "mesh_cells": 14344910,
                    "dimension": 3,
                    "time_per_ite": 1.6671
                },
                "params": {
                    "reactive_flow": 1,
                    "CFL": "70000000",
                    "mixture_name": "CH4_19_184_11_LU",
                    "smu2": "0",
                    "convection_scheme": "LW",
                    "solver_type": "ns",
                    "artificial_viscosity_model": "colin",
                    "LES_model": "no"
                }
            }
        },
        {
            "path": "/scratch/cfd/pouech/DNS_IGNIT/BFS/3D/HIGH_COMB/RUN_2500/avbp_20200901_030408.o",
            "contents": {
                "err_log": [
                    "before wrap up\n ok",
                    0
                ],
                "creation_time": "2020-09-01T03:04:08",
                "vars": {
                    "physical_time": 0.001010991,
                    "final_iteration": 163172,
                    "number_of_probes": 10,
                    "CPU_time_s": 135000.0,
                    "initial_iteration": 161472,
                    "AVBP_version": "7.6.0",
                    "MPI_processes": 48,
                    "elapsed_time": 2812.3,
                    "initial_time": 0.0010000022,
                    "nodes": 2679574,
                    "mesh_cells": 14344910,
                    "dimension": 3,
                    "time_per_ite": 1.6507
                },
                "params": {
                    "reactive_flow": 1,
                    "CFL": "70000000",
                    "mixture_name": "CH4_19_184_11_LU",
                    "smu2": "0",
                    "convection_scheme": "LW",
                    "solver_type": "ns",
                    "artificial_viscosity_model": "colin",
                    "LES_model": "no"
                }
            }
        },
        {
            "path": "/scratch/cfd/pouech/DNS_IGNIT/BFS/3D/HIGH_COMB/RUN_2500/avbp.o",
            "contents": {
                "err_log": [
                    "before run params",
                    110
                ],
                "creation_time": "2020-09-01T18:00:46",
                "vars": {
                    "number_of_probes": 10,
                    "initial_iteration": 161472,
                    "AVBP_version": "7.6.0",
                    "MPI_processes": 240,
                    "initial_time": 0.0010000022,
                    "nodes": 2679574,
                    "mesh_cells": 14344910,
                    "dimension": 3
                },
                "params": {
                    "reactive_flow": 1,
                    "CFL": "70000000",
                    "mixture_name": "CH4_19_184_11_LU",
                    "smu2": "0",
                    "convection_scheme": "LW",
                    "solver_type": "ns",
                    "artificial_viscosity_model": "colin",
                    "LES_model": "no"
                }
            }
        }
    ]
}