{
    "log_monitoring": [
        {
            "path": "/scratch/cfd/pouech/QPF_TurboAVBP/1D_FLAMME/ISO_STATIC_MESH/FULLY_1D/AVBP02/avbp_20190111_191013.o",
            "contents": {
                "err_log": [
                    "before wrap up\n ok",
                    0
                ],
                "creation_time": "2019-01-15T11:23:45",
                "vars": {
                    "physical_time": 2.0,
                    "final_iteration": 1323142,
                    "number_of_probes": 2,
                    "initial_iteration": 2,
                    "AVBP_version": "7.3.0",
                    "MPI_processes": 2,
                    "elapsed_time": 2.0,
                    "initial_time": 2.0,
                    "nodes": 2,
                    "mesh_cells": 2,
                    "dimension": 2,
                    "time_per_ite": 2.0
                },
                "params": {
                    "reactive_flow": 1,
                    "CFL": "70000000",
                    "mixture_name": "CH4",
                    "smu2": "0",
                    "convection_scheme": "TTGC",
                    "partitioner": "parmetis",
                    "ncell_group": "40",
                    "solver_type": "ns",
                    "artificial_viscosity_model": "no",
                    "LES_model": "no"
                }
            }
        },
        {
            "path": "/scratch/cfd/pouech/QPF_TurboAVBP/1D_FLAMME/ISO_STATIC_MESH/FULLY_1D/AVBP02/avbp_20190111_171713.o",
            "contents": {
                "err_log": [
                    "before wrap up\n ok",
                    0
                ],
                "creation_time": "2019-01-15T11:23:45",
                "vars": {
                    "physical_time": 2.0,
                    "final_iteration": 1325228,
                    "number_of_probes": 2,
                    "initial_iteration": 2,
                    "AVBP_version": "7.3.0",
                    "MPI_processes": 2,
                    "elapsed_time": 2.0,
                    "initial_time": 2.0,
                    "nodes": 2,
                    "mesh_cells": 2,
                    "dimension": 2,
                    "time_per_ite": 2.0
                },
                "params": {
                    "reactive_flow": 1,
                    "CFL": "70000000",
                    "mixture_name": "CH4",
                    "smu2": "0",
                    "convection_scheme": "TTGC",
                    "partitioner": "parmetis",
                    "ncell_group": "40",
                    "solver_type": "ns",
                    "artificial_viscosity_model": "no",
                    "LES_model": "no"
                }
            }
        },
        {
            "path": "/scratch/cfd/pouech/QPF_TurboAVBP/1D_FLAMME/ISO_STATIC_MESH/FULLY_1D/AVBP02/avbp.o",
            "contents": {
                "err_log": [
                    "before wrap up\n ok",
                    0
                ],
                "creation_time": "2019-01-15T11:23:45",
                "vars": {
                    "physical_time": 2.0,
                    "final_iteration": 1323142,
                    "number_of_probes": 2,
                    "initial_iteration": 2,
                    "AVBP_version": "7.3.0",
                    "MPI_processes": 2,
                    "elapsed_time": 2.0,
                    "initial_time": 2.0,
                    "nodes": 2,
                    "mesh_cells": 2,
                    "dimension": 2,
                    "time_per_ite": 2.0
                },
                "params": {
                    "reactive_flow": 1,
                    "CFL": "70000000",
                    "mixture_name": "CH4",
                    "smu2": "0",
                    "convection_scheme": "TTGC",
                    "partitioner": "parmetis",
                    "ncell_group": "40",
                    "solver_type": "ns",
                    "artificial_viscosity_model": "no",
                    "LES_model": "no"
                }
            }
        },
        {
            "path": "/scratch/cfd/pouech/QPF_TurboAVBP/1D_FLAMME/ISO_STATIC_MESH/FULLY_1D/AVBP02/avbp_20190111_183305.o",
            "contents": {
                "err_log": [
                    "before wrap up\n ok",
                    0
                ],
                "creation_time": "2019-01-15T11:23:46",
                "vars": {
                    "physical_time": 2.0,
                    "final_iteration": 1323112,
                    "number_of_probes": 2,
                    "initial_iteration": 2,
                    "AVBP_version": "7.3.0",
                    "MPI_processes": 2,
                    "elapsed_time": 2.0,
                    "initial_time": 2.0,
                    "nodes": 2,
                    "mesh_cells": 2,
                    "dimension": 2,
                    "time_per_ite": 2.0
                },
                "params": {
                    "reactive_flow": 1,
                    "CFL": "70000000",
                    "mixture_name": "CH4",
                    "smu2": "0",
                    "convection_scheme": "TTGC",
                    "partitioner": "parmetis",
                    "ncell_group": "40",
                    "solver_type": "ns",
                    "artificial_viscosity_model": "no",
                    "LES_model": "no"
                }
            }
        }
    ]
}