{
    "log_monitoring": [
        {
            "path": "/scratch/cfd/pouech/DNS_IGNIT/MIE/LU19/TOR_Large/10_SL/RUN/avbp_20190125_070737.o",
            "contents": {
                "err_log": [
                    "before wrap up\n ok",
                    0
                ],
                "creation_time": "2019-01-25T07:07:37",
                "vars": {
                    "physical_time": 0.0014899589,
                    "final_iteration": 279413,
                    "number_of_probes": 2,
                    "CPU_time_s": 1580000.0,
                    "initial_iteration": 0,
                    "AVBP_version": "7.2.0",
                    "MPI_processes": 240,
                    "elapsed_time": 6584.67,
                    "initial_time": 0.0,
                    "nodes": 340643,
                    "mesh_cells": 681020,
                    "dimension": 2,
                    "time_per_ite": 0.0236
                },
                "params": {
                    "reactive_flow": 1,
                    "CFL": "70000000",
                    "mixture_name": "CH4_LU_19",
                    "smu2": "0",
                    "convection_scheme": "LW_FE",
                    "partitioner": "parmetis",
                    "ncell_group": "40",
                    "solver_type": "ns",
                    "artificial_viscosity_model": "no",
                    "LES_model": "no"
                }
            }
        },
        {
            "path": "/scratch/cfd/pouech/DNS_IGNIT/MIE/LU19/TOR_Large/10_SL/RUN/avbp.o",
            "contents": {
                "err_log": [
                    "before wrap up\n ok",
                    0
                ],
                "creation_time": "2019-01-25T07:07:37",
                "vars": {
                    "physical_time": 0.0014899589,
                    "final_iteration": 279413,
                    "number_of_probes": 2,
                    "CPU_time_s": 1580000.0,
                    "initial_iteration": 0,
                    "AVBP_version": "7.2.0",
                    "MPI_processes": 240,
                    "elapsed_time": 6584.67,
                    "initial_time": 0.0,
                    "nodes": 340643,
                    "mesh_cells": 681020,
                    "dimension": 2,
                    "time_per_ite": 0.0236
                },
                "params": {
                    "reactive_flow": 1,
                    "CFL": "70000000",
                    "mixture_name": "CH4_LU_19",
                    "smu2": "0",
                    "convection_scheme": "LW_FE",
                    "partitioner": "parmetis",
                    "ncell_group": "40",
                    "solver_type": "ns",
                    "artificial_viscosity_model": "no",
                    "LES_model": "no"
                }
            }
        }
    ]
}