{
    "log_monitoring": [
        {
            "path": "/scratch/cfd/potier/NUMERICS/2_Poiseuille2D_AVBP/CASE_11/RUN/avbp.o",
            "contents": {
                "err_log": [
                    "before wrap up\n ok",
                    0
                ],
                "creation_time": "2019-05-15T14:01:25",
                "vars": {
                    "physical_time": 0.0020000159,
                    "CPU_time_s": 166.3,
                    "number_of_probes": 2,
                    "initial_iteration": 0,
                    "mesh_cells": 400,
                    "elapsed_time": 166.35,
                    "initial_time": 0.0,
                    "nodes": 441,
                    "final_iteration": 102357,
                    "dimension": 2,
                    "time_per_ite": 0.0016
                },
                "params": {
                    "reactive_flow": 0,
                    "CFL": "70000000",
                    "mixture_name": "N2_qpf_poiseuille_2D",
                    "smu2": "0",
                    "convection_scheme": "TTGC",
                    "partitioner": "parmetis",
                    "ncell_group": "40",
                    "solver_type": "ns",
                    "artificial_viscosity_model": "jameson",
                    "real_gas": 0,
                    "LES_model": "no"
                }
            }
        }
    ]
}