{
    "log_monitoring": [
        {
            "path": "/archive/cfd/rossi/old_NONREG/Darjeeling/Arrano/Euler/RUN_73/avbp.o",
            "contents": {
                "err_log": [
                    "before run params",
                    110
                ],
                "creation_time": "2019-04-24T10:00:52",
                "vars": {},
                "params": {
                    "reactive_flow": 1,
                    "CFL": "00000000",
                    "mixture_name": "KERO_LUCHE",
                    "smu2": "1",
                    "convection_scheme": "LW",
                    "partitioner": "parmetis",
                    "two_phase_flow": 0,
                    "ncell_group": "100",
                    "solver_type": "ns",
                    "artificial_viscosity_model": "Colin_species",
                    "real_gas": 0,
                    "LES_model": "smago"
                }
            }
        }
    ]
}