{
    "log_monitoring": [
        {
            "path": "/archive/cfd/rossi/old_NONREG/EarlGrey/ArranoE75/RUN_003/avbp_20190802_183957.o",
            "contents": {
                "err_log": [
                    "wall dist ok,\n before other preproc",
                    290
                ],
                "creation_time": "2019-08-07T09:22:46",
                "vars": {
                    "physical_time": 0.029591757,
                    "final_iteration": 776302,
                    "CPU_time_s": 48140000.0,
                    "initial_iteration": 506000,
                    "AVBP_version": "7.5.0",
                    "MPI_processes": 1120,
                    "elapsed_time": 42978.72,
                    "initial_time": 0.019591756,
                    "nodes": 5203109,
                    "mesh_cells": 29942869,
                    "dimension": 3,
                    "time_per_ite": 0.1584
                },
                "params": {
                    "reactive_flow": 1,
                    "CFL": "00000000",
                    "mixture_name": "KERO_LUCHE",
                    "smu2": "1",
                    "convection_scheme": "LW",
                    "partitioner": "parmetis",
                    "two_phase_flow": 0,
                    "ncell_group": "100",
                    "solver_type": "ns",
                    "artificial_viscosity_model": "Colin_species",
                    "real_gas": 0,
                    "LES_model": "smago"
                }
            }
        },
        {
            "path": "/archive/cfd/rossi/old_NONREG/EarlGrey/ArranoE75/RUN_003/output_4118114.o",
            "contents": {
                "err_log": [
                    "wall dist ok,\n before other preproc",
                    290
                ],
                "creation_time": "2019-08-07T09:12:19",
                "vars": {
                    "CPU_time_s": 48140000.0,
                    "initial_iteration": 506000,
                    "AVBP_version": "7.5.0",
                    "MPI_processes": 1120,
                    "elapsed_time": 42978.72,
                    "initial_time": 0.019591756,
                    "nodes": 5203109,
                    "mesh_cells": 29942869,
                    "dimension": 3,
                    "time_per_ite": 0.1584
                },
                "params": {
                    "reactive_flow": 1,
                    "CFL": "00000000",
                    "mixture_name": "KERO_LUCHE",
                    "smu2": "1",
                    "convection_scheme": "LW",
                    "partitioner": "parmetis",
                    "two_phase_flow": 0,
                    "ncell_group": "100",
                    "solver_type": "ns",
                    "artificial_viscosity_model": "Colin_species",
                    "real_gas": 0,
                    "LES_model": "smago"
                }
            }
        },
        {
            "path": "/archive/cfd/rossi/old_NONREG/EarlGrey/ArranoE75/RUN_003/avbp.o",
            "contents": {
                "err_log": [
                    "wall dist ok,\n before other preproc",
                    290
                ],
                "creation_time": "2019-08-07T09:49:15",
                "vars": {
                    "physical_time": 0.029591757,
                    "final_iteration": 776302,
                    "CPU_time_s": 48140000.0,
                    "initial_iteration": 506000,
                    "AVBP_version": "7.5.0",
                    "MPI_processes": 1120,
                    "elapsed_time": 42978.72,
                    "initial_time": 0.019591756,
                    "nodes": 5203109,
                    "mesh_cells": 29942869,
                    "dimension": 3,
                    "time_per_ite": 0.1584
                },
                "params": {
                    "reactive_flow": 1,
                    "CFL": "00000000",
                    "mixture_name": "KERO_LUCHE",
                    "smu2": "1",
                    "convection_scheme": "LW",
                    "partitioner": "parmetis",
                    "two_phase_flow": 0,
                    "ncell_group": "100",
                    "solver_type": "ns",
                    "artificial_viscosity_model": "Colin_species",
                    "real_gas": 0,
                    "LES_model": "smago"
                }
            }
        }
    ]
}